<?xml version="1.0" encoding="utf-8"?>
<!-- Generator: Adobe Illustrator 24.0.1, SVG Export Plug-In . SVG Version: 6.00 Build 0)  -->
<svg version="1.1" id="Layer_1" xmlns="http://www.w3.org/2000/svg" xmlns:xlink="http://www.w3.org/1999/xlink" x="0px" y="0px"
	 viewBox="0 0 46 37" style="enable-background:new 0 0 46 37;" xml:space="preserve">
<style type="text/css">
	.st0{fill-rule:evenodd;clip-rule:evenodd;fill:#F2CB96;}
	.st1{fill:#F2CB96;}
</style>
<path class="st0" d="M43,20c0,7.7-6.3,14-14,14s-14-6.3-14-14S21.3,6,29,6S43,12.3,43,20z M27.2,8.9h1.6v2.7c0.2,0,0.3,0,0.5,0
	c0.3,0,0.5,0,0.7,0V8.9h1.6v2.9c3.1,0.6,4.5,2.5,5.5,3.7l0,0l-2,0.8c-0.1-0.1-0.1-0.2-0.2-0.3c-0.7-1.1-2-3.3-5.6-3.3
	c-3.3,0-5.9,3.4-5.9,7.1h0v0.6h0c0,3.7,2.6,7.1,5.9,7.1c3.6,0,4.9-2.1,5.6-3.3l0,0l0,0c0.1-0.1,0.1-0.2,0.2-0.3l2,0.8l0,0
	c-1,1.3-2.4,3.1-5.5,3.7v2.7h-1.6v-2.5c-0.2,0-0.5,0-0.7,0c-0.2,0-0.3,0-0.5,0v2.5h-1.6v-2.8c-3.6-1-6.4-4.2-6.4-7.9l0,0v0v-0.4
	v-0.1l0,0c0-3.7,2.8-7,6.4-8V8.9z M26.6,18.8c-1.1,0.4-2,1-2.5,1.9c1-2,3.1-3.8,5.6-3.8c2.4,0,4.5,1.8,5.6,3.8
	c-0.5-0.9-1.4-1.5-2.5-1.9c0.4,0.5,0.6,1.1,0.6,1.8c0,1.8-1.7,3.2-3.7,3.2c-2.1,0-3.7-1.4-3.7-3.2C26,19.9,26.2,19.3,26.6,18.8z
	 M32.4,20.5c0,1-1,2.1-2.7,2.1c-1.6,0-2.7-1.1-2.7-2.1c0-1,1-2.1,2.7-2.1C31.4,18.4,32.4,19.5,32.4,20.5z M30.5,20.5
	c0,0.5-0.4,0.8-0.8,0.8c-0.5,0-0.8-0.4-0.8-0.8s0.4-0.8,0.8-0.8C30.2,19.7,30.5,20.1,30.5,20.5z"/>
<path class="st1" d="M19.4,6H0v4h15.3C16.4,8.4,17.8,7.1,19.4,6z"/>
<path class="st1" d="M27,0H0v4h23.3c1.2-0.4,2.4-0.7,3.7-0.9V0z"/>
<path class="st1" d="M0,12v4h12.5c0.3-1.4,0.8-2.8,1.5-4H0z"/>
<path class="st1" d="M12.1,18H0v4h12.1c-0.1-0.7-0.1-1.3-0.1-2S12.1,18.7,12.1,18z"/>
<path class="st1" d="M0,24v4h14c-0.7-1.2-1.2-2.6-1.5-4H0z"/>
<path class="st1" d="M15.3,30H0v4h19.4C17.8,32.9,16.4,31.6,15.3,30z"/>
</svg>
