<svg width="22" height="30" viewBox="0 0 22 30" fill="none" xmlns="http://www.w3.org/2000/svg">
<path d="M16.981 0.570312L19.4905 3.07984L22 5.58936H16.981V0.570312Z" fill="#6D6D6D"/>
<path fill-rule="evenodd" clip-rule="evenodd" d="M0.669067 1.57031C0.669067 1.01803 1.11678 0.570312 1.66907 0.570312H15.7262V6.84412H22V2.56293L22 2.57031V28.4298C22 28.9821 21.5523 29.4298 21 29.4298H0.669067V1.57031ZM11.1957 6.7127H9.8239V9.14873C6.85153 9.95453 4.51168 12.6851 4.51168 15.7693H4.51171V15.8741V16.2068V16.2213H4.51173C4.51909 19.2996 6.85623 22.0228 9.8239 22.8274V25.163H11.1957V23.0546C11.334 23.0632 11.473 23.0676 11.6126 23.0676C11.8263 23.0676 12.033 23.062 12.2329 23.0512V25.163H13.6048V22.8798C16.1955 22.3519 17.3523 20.8239 18.156 19.7623L18.1575 19.7603L16.477 19.127C16.4258 19.2055 16.3708 19.2958 16.3104 19.3951C15.7293 20.3493 14.6453 22.1293 11.6126 22.1293C8.87514 22.1293 6.6919 19.2652 6.68494 16.2213H6.68558V15.7593H6.68491C6.68971 12.7138 8.87377 9.84676 11.6125 9.84676C14.6453 9.84676 15.7292 11.6268 16.3103 12.581C16.3708 12.6803 16.4258 12.7706 16.477 12.8491L18.1574 12.2158L18.156 12.2138C17.3523 11.1523 16.1955 9.6242 13.6048 9.09628V6.7127H12.2329V8.92495C12.033 8.91414 11.8263 8.90853 11.6125 8.90853C11.473 8.90853 11.334 8.9129 11.1957 8.9215V6.7127Z" fill="#6D6D6D"/>
</svg>
