<?xml version="1.0" encoding="utf-8"?>
<!-- Generator: Adobe Illustrator 23.0.3, SVG Export Plug-In . SVG Version: 6.00 Build 0)  -->
<svg version="1.1" id="Layer_1" xmlns="http://www.w3.org/2000/svg" xmlns:xlink="http://www.w3.org/1999/xlink" x="0px" y="0px"
	 viewBox="0 0 25.91 13.56" style="enable-background:new 0 0 25.91 13.56;" xml:space="preserve">
<g>
	<g>
		<path d="M5.78,6.78c0-2.44,1.01-4.62,2.59-6.07c0.17-0.16,0.01-0.42-0.21-0.35c-3.23,1.03-6,3.08-7.95,5.76
			c-0.28,0.39-0.28,0.93,0,1.32c1.95,2.69,4.72,4.73,7.95,5.76c0.22,0.07,0.38-0.2,0.21-0.35C6.79,11.4,5.78,9.22,5.78,6.78z"/>
		<path d="M17.75,0.35c-0.22-0.07-0.38,0.2-0.21,0.35c1.58,1.45,2.59,3.63,2.59,6.07s-1.01,4.62-2.59,6.07
			c-0.17,0.16-0.01,0.42,0.21,0.35c3.23-1.03,6-3.08,7.95-5.76c0.28-0.39,0.28-0.93,0-1.32C23.75,3.43,20.98,1.39,17.75,0.35z"/>
	</g>
	<path d="M12.96,3.24c-0.34,0-0.67,0.06-0.98,0.15c0.58,0.26,0.98,0.84,0.98,1.52c0,0.92-0.75,1.67-1.67,1.67
		c-0.75,0-1.38-0.5-1.59-1.18C9.52,5.83,9.42,6.29,9.42,6.78c0,1.95,1.58,3.54,3.54,3.54c1.95,0,3.54-1.58,3.54-3.54
		S14.91,3.24,12.96,3.24z"/>
</g>
</svg>
