{
    "header": {
        "event": "Allocation failed - JavaScript heap out of memory",
        "trigger": "FatalError",
        "filename": "report.20191127.171505.2131.0.001.json",
        "dumpEventTime": "2019-11-27T17:15:05Z",
        "dumpEventTimeStamp": "1574864105703",
        "processId": 2131,
        "commandLine": [
            "/home/applecat/.nvm/versions/node/v11.13.0/bin/node",
            "/home/applecat/.npm/_npx/1987/lib/node_modules/react-codemod/node_modules/jscodeshift/src/Worker.js",
            "/home/applecat/.npm/_npx/1987/lib/node_modules/react-codemod/transforms/rename-unsafe-lifecycles.js",
            "babel"
        ],
        "nodejsVersion": "v11.13.0",
        "glibcVersionRuntime": "2.27",
        "glibcVersionCompiler": "2.12",
        "wordSize": 64,
        "arch": "x64",
        "platform": "linux",
        "componentVersions": {
            "node": "11.13.0",
            "v8": "7.0.276.38-node.18",
            "uv": "1.27.0",
            "zlib": "1.2.11",
            "brotli": "1.0.7",
            "ares": "1.15.0",
            "modules": "67",
            "nghttp2": "1.34.0",
            "napi": "4",
            "llhttp": "1.1.1",
            "http_parser": "2.8.0",
            "openssl": "1.1.1b",
            "cldr": "34.0",
            "icu": "63.1",
            "tz": "2018e",
            "unicode": "11.0"
        },
        "release": {
            "name": "node",
            "headersUrl": "https://nodejs.org/download/release/v11.13.0/node-v11.13.0-headers.tar.gz",
            "sourceUrl": "https://nodejs.org/download/release/v11.13.0/node-v11.13.0.tar.gz"
        },
        "osName": "Linux",
        "osRelease": "4.4.0-18362-Microsoft",
        "osVersion": "#476-Microsoft Fri Nov 01 16:53:00 PST 2019",
        "osMachine": "x86_64",
        "host": "ApplecatDell"
    },
    "javascriptStack": {
        "message": "No stack.",
        "stack": ["Unavailable."]
    },
    "nativeStack": [
        {
            "pc": "0x0000000000a6dd6d",
            "symbol": "report::TriggerNodeReport(v8::Isolate*, node::Environment*, char const*, char const*, std::string const&, v8::Local<v8::String>) [/home/applecat/.nvm/versions/node/v11.13.0/bin/node]"
        },
        {
            "pc": "0x000000000095b483",
            "symbol": "node::OnFatalError(char const*, char const*) [/home/applecat/.nvm/versions/node/v11.13.0/bin/node]"
        },
        {
            "pc": "0x0000000000b3b32e",
            "symbol": "v8::Utils::ReportOOMFailure(v8::internal::Isolate*, char const*, bool) [/home/applecat/.nvm/versions/node/v11.13.0/bin/node]"
        },
        {
            "pc": "0x0000000000b3b564",
            "symbol": "v8::internal::V8::FatalProcessOutOfMemory(v8::internal::Isolate*, char const*, bool) [/home/applecat/.nvm/versions/node/v11.13.0/bin/node]"
        },
        {
            "pc": "0x0000000000f3abb2",
            "symbol": " [/home/applecat/.nvm/versions/node/v11.13.0/bin/node]"
        },
        {
            "pc": "0x0000000000f3acb8",
            "symbol": "v8::internal::Heap::CheckIneffectiveMarkCompact(unsigned long, double) [/home/applecat/.nvm/versions/node/v11.13.0/bin/node]"
        },
        {
            "pc": "0x0000000000f473d8",
            "symbol": "v8::internal::Heap::PerformGarbageCollection(v8::internal::GarbageCollector, v8::GCCallbackFlags) [/home/applecat/.nvm/versions/node/v11.13.0/bin/node]"
        },
        {
            "pc": "0x0000000000f47eeb",
            "symbol": "v8::internal::Heap::CollectGarbage(v8::internal::AllocationSpace, v8::internal::GarbageCollectionReason, v8::GCCallbackFlags) [/home/applecat/.nvm/versions/node/v11.13.0/bin/node]"
        },
        {
            "pc": "0x0000000000f4ac21",
            "symbol": "v8::internal::Heap::AllocateRawWithRetryOrFail(int, v8::internal::AllocationSpace, v8::internal::AllocationAlignment) [/home/applecat/.nvm/versions/node/v11.13.0/bin/node]"
        },
        {
            "pc": "0x0000000000f14e54",
            "symbol": "v8::internal::Factory::NewFillerObject(int, bool, v8::internal::AllocationSpace) [/home/applecat/.nvm/versions/node/v11.13.0/bin/node]"
        },
        {
            "pc": "0x00000000011cb15e",
            "symbol": "v8::internal::Runtime_AllocateInNewSpace(int, v8::internal::Object**, v8::internal::Isolate*) [/home/applecat/.nvm/versions/node/v11.13.0/bin/node]"
        },
        {
            "pc": "0x00002a7bdbccfc5d",
            "symbol": ""
        }
    ],
    "javascriptHeap": {
        "totalMemory": 1508192256,
        "totalCommittedMemory": 1499709992,
        "usedMemory": 1430418416,
        "availableMemory": 29500248,
        "memoryLimit": 1526909922,
        "heapSpaces": {
            "read_only_space": {
                "memorySize": 524288,
                "committedMemory": 42224,
                "capacity": 515584,
                "used": 33520,
                "available": 482064
            },
            "new_space": {
                "memorySize": 10485760,
                "committedMemory": 3758792,
                "capacity": 5155840,
                "used": 1103240,
                "available": 4052600
            },
            "old_space": {
                "memorySize": 1462964224,
                "committedMemory": 1462469984,
                "capacity": 1404158856,
                "used": 1397718968,
                "available": 6439888
            },
            "code_space": {
                "memorySize": 2621440,
                "committedMemory": 2121504,
                "capacity": 2029600,
                "used": 2029600,
                "available": 0
            },
            "map_space": {
                "memorySize": 1585152,
                "committedMemory": 1306096,
                "capacity": 906160,
                "used": 906160,
                "available": 0
            },
            "large_object_space": {
                "memorySize": 30011392,
                "committedMemory": 30011392,
                "capacity": 47152624,
                "used": 28626928,
                "available": 18525696
            },
            "new_large_object_space": {
                "memorySize": 0,
                "committedMemory": 0,
                "capacity": 0,
                "used": 0,
                "available": 0
            }
        }
    },
    "resourceUsage": {
        "userCpuSeconds": 270.75,
        "kernelCpuSeconds": 18.6562,
        "cpuConsumptionPercent": 135.237,
        "maxRss": 1553403904,
        "pageFaults": {
            "IORequired": 0,
            "IONotRequired": 1711193
        },
        "fsActivity": {
            "reads": 0,
            "writes": 0
        }
    },
    "uvthreadResourceUsage": {
        "userCpuSeconds": 169.016,
        "kernelCpuSeconds": 12,
        "cpuConsumptionPercent": 84.5867,
        "fsActivity": {
            "reads": 0,
            "writes": 0
        }
    },
    "libuv": [],
    "environmentVariables": {
        "NVM_DIR": "/home/applecat/.nvm",
        "LS_COLORS": "rs=0:di=01;34:ln=01;36:mh=00:pi=40;33:so=01;35:do=01;35:bd=40;33;01:cd=40;33;01:or=40;31;01:mi=00:su=37;41:sg=30;43:ca=30;41:tw=30;42:ow=34;42:st=37;44:ex=01;32:*.tar=01;31:*.tgz=01;31:*.arc=01;31:*.arj=01;31:*.taz=01;31:*.lha=01;31:*.lz4=01;31:*.lzh=01;31:*.lzma=01;31:*.tlz=01;31:*.txz=01;31:*.tzo=01;31:*.t7z=01;31:*.zip=01;31:*.z=01;31:*.Z=01;31:*.dz=01;31:*.gz=01;31:*.lrz=01;31:*.lz=01;31:*.lzo=01;31:*.xz=01;31:*.zst=01;31:*.tzst=01;31:*.bz2=01;31:*.bz=01;31:*.tbz=01;31:*.tbz2=01;31:*.tz=01;31:*.deb=01;31:*.rpm=01;31:*.jar=01;31:*.war=01;31:*.ear=01;31:*.sar=01;31:*.rar=01;31:*.alz=01;31:*.ace=01;31:*.zoo=01;31:*.cpio=01;31:*.7z=01;31:*.rz=01;31:*.cab=01;31:*.wim=01;31:*.swm=01;31:*.dwm=01;31:*.esd=01;31:*.jpg=01;35:*.jpeg=01;35:*.mjpg=01;35:*.mjpeg=01;35:*.gif=01;35:*.bmp=01;35:*.pbm=01;35:*.pgm=01;35:*.ppm=01;35:*.tga=01;35:*.xbm=01;35:*.xpm=01;35:*.tif=01;35:*.tiff=01;35:*.png=01;35:*.svg=01;35:*.svgz=01;35:*.mng=01;35:*.pcx=01;35:*.mov=01;35:*.mpg=01;35:*.mpeg=01;35:*.m2v=01;35:*.mkv=01;35:*.webm=01;35:*.ogm=01;35:*.mp4=01;35:*.m4v=01;35:*.mp4v=01;35:*.vob=01;35:*.qt=01;35:*.nuv=01;35:*.wmv=01;35:*.asf=01;35:*.rm=01;35:*.rmvb=01;35:*.flc=01;35:*.avi=01;35:*.fli=01;35:*.flv=01;35:*.gl=01;35:*.dl=01;35:*.xcf=01;35:*.xwd=01;35:*.yuv=01;35:*.cgm=01;35:*.emf=01;35:*.ogv=01;35:*.ogx=01;35:*.aac=00;36:*.au=00;36:*.flac=00;36:*.m4a=00;36:*.mid=00;36:*.midi=00;36:*.mka=00;36:*.mp3=00;36:*.mpc=00;36:*.ogg=00;36:*.ra=00;36:*.wav=00;36:*.oga=00;36:*.opus=00;36:*.spx=00;36:*.xspf=00;36:",
        "HOSTTYPE": "x86_64",
        "LESSCLOSE": "/usr/bin/lesspipe %s %s",
        "LANG": "C.UTF-8",
        "OLDPWD": "/mnt/c/Users/ustim/Desktop/FRONT_END",
        "NVM_CD_FLAGS": "",
        "WSL_DISTRO_NAME": "Ubuntu-18.04",
        "USER": "applecat",
        "PWD": "/mnt/c/Users/ustim/Desktop/FRONT_END/CRAWDWIZ/crw_platform",
        "HOME": "/home/applecat",
        "NAME": "ApplecatDell",
        "XDG_DATA_DIRS": "/usr/local/share:/usr/share:/var/lib/snapd/desktop",
        "SHELL": "/bin/bash",
        "TERM": "xterm-256color",
        "NVM_BIN": "/home/applecat/.nvm/versions/node/v11.13.0/bin",
        "SHLVL": "1",
        "LOGNAME": "applecat",
        "PATH": "/home/applecat/.npm/_npx/1987/bin:/mnt/c/Users/ustim/Desktop/FRONT_END/CRAWDWIZ/crw_platform/node_modules/.bin:/home/applecat/.local/bin:/home/applecat/.nvm/versions/node/v11.13.0/bin:/usr/local/sbin:/usr/local/bin:/usr/sbin:/usr/bin:/sbin:/bin:/usr/games:/usr/local/games:/mnt/c/Windows/system32:/mnt/c/Windows:/mnt/c/Windows/System32/Wbem:/mnt/c/Windows/System32/WindowsPowerShell/v1.0/:/mnt/c/Program Files (x86)/NVIDIA Corporation/PhysX/Common:/mnt/c/Program Files/Git/cmd:/mnt/c/Users/ustim/AppData/Roaming/nvm:/mnt/c/Program Files/nodejs:/mnt/c/WINDOWS/system32:/mnt/c/WINDOWS:/mnt/c/WINDOWS/System32/Wbem:/mnt/c/WINDOWS/System32/WindowsPowerShell/v1.0/:/mnt/c/WINDOWS/System32/OpenSSH/:/mnt/c/Program Files/NVIDIA Corporation/NVIDIA NvDLISR:/mnt/c/Program Files/nodejs/:/mnt/c/Program Files (x86)/Intel/Intel(R) Management Engine Components/DAL:/mnt/c/Program Files/Intel/Intel(R) Management Engine Components/DAL:/mnt/c/WINDOWS/system32:/mnt/c/WINDOWS:/mnt/c/WINDOWS/System32/Wbem:/mnt/c/WINDOWS/System32/WindowsPowerShell/v1.0/:/mnt/c/WINDOWS/System32/OpenSSH/:/mnt/c/Users/ustim/AppData/Local/Microsoft/WindowsApps:/mnt/c/Users/ustim/AppData/Local/Programs/Microsoft VS Code/bin:/mnt/c/Users/ustim/AppData/Roaming/npm:/mnt/c/Users/ustim/AppData/Local/GitHubDesktop/bin:/snap/bin",
        "WSLENV": "",
        "LESSOPEN": "| /usr/bin/lesspipe %s",
        "_": "/home/applecat/.nvm/versions/node/v11.13.0/bin/npx"
    },
    "userLimits": {
        "core_file_size_blocks": {
            "soft": 0,
            "hard": "unlimited"
        },
        "data_seg_size_kbytes": {
            "soft": "unlimited",
            "hard": "unlimited"
        },
        "file_size_blocks": {
            "soft": "unlimited",
            "hard": "unlimited"
        },
        "max_locked_memory_bytes": {
            "soft": 65536,
            "hard": 65536
        },
        "max_memory_size_kbytes": {
            "soft": "unlimited",
            "hard": "unlimited"
        },
        "open_files": {
            "soft": 65536,
            "hard": 65536
        },
        "stack_size_bytes": {
            "soft": 8388608,
            "hard": 8388608
        },
        "cpu_time_seconds": {
            "soft": "unlimited",
            "hard": "unlimited"
        },
        "max_user_processes": {
            "soft": 7823,
            "hard": 7823
        },
        "virtual_memory_kbytes": {
            "soft": "unlimited",
            "hard": "unlimited"
        }
    },
    "sharedObjects": [
        "linux-vdso.so.1",
        "/lib/x86_64-linux-gnu/libdl.so.2",
        "/lib/x86_64-linux-gnu/librt.so.1",
        "/usr/lib/x86_64-linux-gnu/libstdc++.so.6",
        "/lib/x86_64-linux-gnu/libm.so.6",
        "/lib/x86_64-linux-gnu/libgcc_s.so.1",
        "/lib/x86_64-linux-gnu/libpthread.so.0",
        "/lib/x86_64-linux-gnu/libc.so.6",
        "/lib64/ld-linux-x86-64.so.2"
    ]
}
