<svg width="81" height="82" viewBox="0 0 81 82" fill="none" xmlns="http://www.w3.org/2000/svg">
<g clip-path="url(#clip0)">
<path d="M57.2905 31.6001C56.7505 31.0923 55.9236 31.0923 55.3836 31.6001L47.7393 39.2515C47.2161 39.7763 47.2161 40.6396 47.7393 41.1644L48.7011 42.1292L46.1193 44.7192L44.0436 45.1255L40.0949 41.1644C39.8418 40.9104 39.5043 40.775 39.133 40.775H33.9693L31.5055 38.3035C32.0286 37.7788 32.0286 36.9155 31.5055 36.3907L23.878 28.7224C23.6249 28.4684 23.2874 28.333 22.9161 28.333C22.5449 28.333 22.2074 28.4684 21.9543 28.7224L6.68238 44.0421C6.15926 44.5669 6.15926 45.4302 6.68238 45.955L14.3268 53.6233C14.8499 54.1481 15.7105 54.1481 16.2336 53.6233L24.9918 62.4089C24.4011 63.6277 24.4686 65.0666 25.1605 66.2346C25.8524 67.4026 27.0843 68.1305 28.4343 68.1982C28.5186 70.2804 30.1893 71.9393 32.2649 72.0239C32.3493 74.1061 34.003 75.765 36.0786 75.8496C36.163 77.4409 37.1755 78.8459 38.6605 79.4214C40.1455 79.997 41.833 79.6415 42.9636 78.5073L44.398 79.9462C45.5286 81.0973 47.2161 81.4528 48.718 80.8772C50.2199 80.3017 51.2324 78.8967 51.2999 77.2885C53.3755 77.2039 55.0293 75.5449 55.1136 73.4628C57.1893 73.3782 58.843 71.7023 58.9274 69.6371C60.5305 69.5525 61.9311 68.5537 62.5049 67.0471C63.0786 65.5575 62.7243 63.8647 61.5936 62.7305L60.1593 61.2916L63.973 57.449L64.9349 58.4139C65.458 58.9387 66.3186 58.9387 66.8418 58.4139L74.4861 50.7456C75.0093 50.2208 75.0093 49.3575 74.4861 48.8327L57.2905 31.6001ZM49.1736 54.0973C49.6968 54.622 49.6968 55.4854 49.1736 56.0101C48.6336 56.518 47.8068 56.518 47.2668 56.0101L41.5461 50.2716C41.023 49.7468 40.1624 49.7468 39.6393 50.2716C38.053 51.8628 35.488 51.8628 33.9018 50.2716L31.9949 52.1844C32.4843 52.6753 33.0411 53.0647 33.6655 53.3863L26.7468 60.3267L21.9711 55.5362L33.9861 43.4835H38.593L49.1736 54.0973ZM15.2886 50.7456L9.55113 45.007L22.9161 31.6001L28.6368 37.3387L15.2886 50.7456ZM29.6155 40.2164L31.5224 42.1292L20.0643 53.6233L18.1574 51.7104L29.6155 40.2164ZM40.0949 76.9838C39.7405 76.9838 39.403 76.8484 39.1499 76.5945C38.6268 76.0697 38.6268 75.2233 39.133 74.6985L41.9174 71.9054L42.9636 70.8559L41.0568 68.943L40.0105 69.9926L37.2261 72.7688L37.2093 72.7857C36.6693 73.2597 35.8593 73.2427 35.353 72.718C34.8468 72.2101 34.8299 71.3807 35.3193 70.8559L39.133 67.0302L37.2261 65.1173L33.4124 68.943C32.8893 69.4678 32.0286 69.4678 31.5055 68.943C30.9824 68.4183 30.9824 67.555 31.5055 67.0302L35.3193 63.2045L33.4124 61.2916L29.5986 65.1173C29.0586 65.6252 28.2318 65.6252 27.6918 65.1173C27.1686 64.5926 27.1686 63.7293 27.6918 63.2045L36.7199 54.1481C38.053 54.165 39.3693 53.7926 40.4999 53.0477L45.3599 57.923C46.963 59.4634 49.4774 59.4634 51.0805 57.923C52.6668 56.3318 52.6668 53.7587 51.0805 52.1844L46.3386 47.4277L58.2355 59.3619L57.8305 59.7681C56.6493 59.4465 55.4005 59.6666 54.4049 60.3945C53.4261 61.1224 52.8186 62.2396 52.7511 63.4753C50.6586 63.56 49.0049 65.2528 48.9374 67.3349C46.8618 67.3857 45.1911 69.0446 45.1236 71.1267C43.9086 71.1775 42.778 71.7869 42.0693 72.7688C41.3436 73.7506 41.1243 75.0202 41.4449 76.2051L41.0399 76.6114C40.7868 76.8653 40.4493 77.0007 40.0949 76.9838ZM48.2118 78.0333C47.6718 78.5412 46.8449 78.5412 46.3049 78.0333L44.398 76.1205C43.9255 75.5788 43.9424 74.7662 44.4486 74.2584C44.9549 73.7506 45.7649 73.7336 46.288 74.2076L48.1949 76.1205C48.448 76.3744 48.5999 76.713 48.583 77.0684C48.6168 77.4409 48.4818 77.7794 48.2118 78.0333ZM52.0424 74.2076C51.5193 74.7324 50.6586 74.7324 50.1355 74.2076L48.2286 72.2948C47.9755 72.0409 47.8405 71.7023 47.8405 71.3299C47.8405 70.9744 47.9755 70.6189 48.2286 70.365C48.4818 70.1111 48.8193 69.9587 49.1736 69.9757C49.528 69.9757 49.8824 70.1111 50.1355 70.365L52.0424 72.2778C52.2955 72.5318 52.4305 72.8703 52.4474 73.2427C52.4305 73.6152 52.2955 73.9537 52.0424 74.2076ZM55.8561 70.3819C55.3161 70.8898 54.4893 70.8898 53.9493 70.3819L52.0424 68.4691C51.5361 67.9443 51.5361 67.0979 52.0593 66.5731C52.5824 66.0484 53.4261 66.0484 53.9493 66.5562L55.8561 68.4691C56.1093 68.723 56.2443 69.0615 56.2443 69.434C56.2443 69.7725 56.1093 70.128 55.8561 70.3819ZM59.6699 66.5393C59.4168 66.7932 59.0793 66.9286 58.708 66.9286C58.3536 66.9286 57.9993 66.7932 57.7461 66.5393L55.8561 64.6264C55.333 64.1017 55.333 63.2383 55.8561 62.7136C56.3793 62.1888 57.2399 62.1888 57.763 62.7136L59.6699 64.6264C60.193 65.1681 60.193 66.0145 59.6699 66.5393ZM60.1593 57.449L48.7011 45.955L50.608 44.0421L62.0661 55.5362L60.1593 57.449ZM65.8799 55.5362L50.608 40.2164L56.3286 34.4778L71.6005 49.7976L65.8799 55.5362Z" fill="#DEC27F"/>
<path d="M79.8188 32.6664L71.6006 31.6338C70.9425 29.3994 70.0481 27.2326 68.9344 25.2012L74.0306 18.6332C74.4525 18.0915 74.4019 17.3298 73.9125 16.8389L64.3613 7.25767C63.8719 6.76676 63.1125 6.7329 62.5725 7.13917L56.025 12.2514C53.9831 11.1342 51.84 10.237 49.6125 9.57679L48.5831 1.3329C48.4988 0.655786 47.925 0.147949 47.25 0.147949H33.75C33.075 0.147949 32.5013 0.655786 32.4169 1.3329L31.3875 9.57679C29.16 10.237 27 11.1342 24.975 12.2514L18.4275 7.13917C17.8875 6.71597 17.1281 6.76676 16.6388 7.25767L7.0875 16.8389C6.59813 17.3298 6.56438 18.0915 6.96938 18.6332L12.0656 25.2012C10.9519 27.2495 10.0575 29.3994 9.39938 31.6338L1.18125 32.6664C0.50625 32.7511 0 33.3266 0 34.0037V47.5461C0 48.2232 0.50625 48.7987 1.18125 48.8834L5.23125 49.3912L5.56875 46.6997L2.7 46.3442V35.1887L10.6313 34.19C11.1881 34.1222 11.6269 33.7329 11.7788 33.1912C12.4538 30.5843 13.5 28.079 14.85 25.7429C15.1369 25.2689 15.0863 24.6595 14.7488 24.2194L9.83813 17.8884L17.7019 9.99999L24.0131 14.926C24.4519 15.2646 25.0425 15.2984 25.5319 15.0276C27.8606 13.6564 30.3581 12.6238 32.9569 11.9298C33.4969 11.7943 33.885 11.3373 33.9525 10.7787L34.9481 2.82256H46.0688L47.0644 10.7787C47.1319 11.3373 47.52 11.7774 48.06 11.9298C50.6588 12.6069 53.1563 13.6564 55.485 15.0106C55.9575 15.2984 56.565 15.2476 57.0038 14.9091L63.315 9.98306L71.1788 17.8715L66.2681 24.2025C65.9306 24.6426 65.8969 25.2351 66.1669 25.726C67.5338 28.0621 68.5631 30.5674 69.255 33.1743C69.39 33.716 69.8456 34.1053 70.4025 34.173L78.3338 35.1718V46.3273L76.815 46.5135L77.1525 49.205L79.8525 48.8664C80.5275 48.7818 81.0338 48.2062 81.0338 47.5291V33.9868C81 33.3266 80.4938 32.7511 79.8188 32.6664Z" fill="#DEC27F"/>
<path d="M39.1499 8.27344H41.8499V10.9819H39.1499V8.27344Z" fill="#DEC27F"/>
<path d="M16.6387 18.7517L18.5455 16.8389L20.4524 18.7517L18.5455 20.6646L16.6387 18.7517Z" fill="#DEC27F"/>
<path d="M70.2002 39.4209H72.9002V42.1294H70.2002V39.4209Z" fill="#DEC27F"/>
<path d="M60.5474 18.7517L62.4542 16.8389L64.3611 18.7517L62.4542 20.6646L60.5474 18.7517Z" fill="#DEC27F"/>
<path d="M27.9621 28.4511C31.4214 24.8963 36.2308 22.9834 41.1752 23.1866C46.1196 23.3728 50.7602 25.658 53.9496 29.4668L56.0252 27.7232C52.3464 23.3389 46.9971 20.7151 41.2933 20.495C35.5896 20.275 30.0546 22.4756 26.0552 26.5721L27.9621 28.4511Z" fill="#DEC27F"/>
</g>
<defs>
<clipPath id="clip0">
<rect width="81" height="81" fill="white" transform="translate(0 0.147949)"/>
</clipPath>
</defs>
</svg>
