<svg width="72" height="78" viewBox="0 0 72 78" fill="none" xmlns="http://www.w3.org/2000/svg">
<g clip-path="url(#clip0)">
<path d="M43.9232 11.1204C44.325 11.714 45.1125 11.8744 45.7071 11.4734C46.0607 11.2327 46.2857 10.8317 46.2857 10.3986V2.71462H50.1429C50.85 2.71462 51.4286 3.29212 51.4286 3.99795V10.4146H54V3.99795C54 1.86441 52.2804 0.147949 50.1429 0.147949H3.85714C1.71964 0.147949 0 1.86441 0 3.99795V65.5979C0 67.7315 1.71964 69.4479 3.85714 69.4479H39.8571V66.8813H3.85714C3.15 66.8813 2.57143 66.3038 2.57143 65.5979V3.99795C2.57143 3.29212 3.15 2.71462 3.85714 2.71462H38.5714V10.4146C38.5714 11.1204 39.15 11.6979 39.8571 11.6979C40.2911 11.6979 40.6929 11.4894 40.9339 11.1204L42.4286 8.87462L43.9232 11.1204ZM41.3518 5.85878L41.1429 6.17962V2.71462H43.7143V6.17962L43.5054 5.85878C43.1036 5.26524 42.3161 5.10482 41.7214 5.50587C41.5768 5.60212 41.4482 5.71441 41.3518 5.85878Z" fill="#DEC27F"/>
<path d="M20.5715 52.7648C27.6751 52.7648 33.4286 47.0219 33.4286 39.9315C33.4286 39.2256 32.8501 38.6481 32.1429 38.6481H21.8572V28.3815C21.8572 27.6756 21.2786 27.0981 20.5715 27.0981C13.4679 27.0981 7.71436 32.8411 7.71436 39.9315C7.71436 47.0219 13.4679 52.7648 20.5715 52.7648ZM19.2858 29.745V39.9315C19.2858 40.6373 19.8644 41.2148 20.5715 41.2148H30.7769C30.0697 46.8454 24.9269 50.8238 19.2858 50.1179C13.6447 49.4121 9.659 44.2788 10.3661 38.6481C10.9608 33.9961 14.6251 30.3225 19.2858 29.745Z" fill="#DEC27F"/>
<path d="M37.2859 36.0814C37.2859 28.991 31.5324 23.248 24.4288 23.248C23.7216 23.248 23.1431 23.8255 23.1431 24.5314V36.0814C23.1431 36.7872 23.7216 37.3647 24.4288 37.3647H36.0002C36.7074 37.3647 37.2859 36.7872 37.2859 36.0814ZM25.7145 34.798V25.8949C30.3752 26.4885 34.0395 30.146 34.6341 34.798H25.7145Z" fill="#DEC27F"/>
<path d="M30.8569 51.4814H35.9998V54.0481H30.8569V51.4814Z" fill="#DEC27F"/>
<path d="M30.8569 56.6147H35.9998V59.1814H30.8569V56.6147Z" fill="#DEC27F"/>
<path d="M14.1429 19.3981H11.5715C10.8644 19.3981 10.2858 18.8206 10.2858 18.1148H7.71436C7.71436 20.2484 9.434 21.9648 11.5715 21.9648V23.2481H14.1429V21.9648C16.2804 21.9648 18.0001 20.2484 18.0001 18.1148C18.0001 15.9813 16.2804 14.2648 14.1429 14.2648H11.5715C10.8644 14.2648 10.2858 13.6873 10.2858 12.9815C10.2858 12.2756 10.8644 11.6981 11.5715 11.6981H14.1429C14.8501 11.6981 15.4286 12.2756 15.4286 12.9815H18.0001C18.0001 10.8479 16.2804 9.13148 14.1429 9.13148V7.84814H11.5715V9.13148C9.434 9.13148 7.71436 10.8479 7.71436 12.9815C7.71436 15.115 9.434 16.8315 11.5715 16.8315H14.1429C14.8501 16.8315 15.4286 17.409 15.4286 18.1148C15.4286 18.8206 14.8501 19.3981 14.1429 19.3981Z" fill="#DEC27F"/>
<path d="M20.5713 16.8311H30.857V19.3977H20.5713V16.8311Z" fill="#DEC27F"/>
<path d="M20.5713 11.6978H30.857V14.2644H20.5713V11.6978Z" fill="#DEC27F"/>
<path d="M64.2856 54.0479H48.857C48.1499 54.0479 47.5713 54.6254 47.5713 55.3312V70.7312C47.5713 71.437 48.1499 72.0145 48.857 72.0145H64.2856C64.9927 72.0145 65.5713 71.437 65.5713 70.7312V55.3312C65.5713 54.6254 64.9927 54.0479 64.2856 54.0479ZM62.9999 59.1812H60.4284V56.6145H62.9999V59.1812ZM55.2856 64.3145V61.7478H57.857V64.3145H55.2856ZM57.857 66.8812V69.4478H55.2856V66.8812H57.857ZM52.7141 64.3145H50.1427V61.7478H52.7141V64.3145ZM55.2856 59.1812V56.6145H57.857V59.1812H55.2856ZM60.4284 61.7478H62.9999V64.3145H60.4284V61.7478ZM52.7141 56.6145V59.1812H50.1427V56.6145H52.7141ZM50.1427 66.8812H52.7141V69.4478H50.1427V66.8812ZM60.4284 69.4478V66.8812H62.9999V69.4478H60.4284Z" fill="#DEC27F"/>
<path d="M69.4288 33.5147H68.1431V14.2647C68.1431 13.5588 67.5645 12.9813 66.8573 12.9813C66.5841 12.9813 66.3109 13.0776 66.0859 13.238L63.4341 15.2272L60.7824 13.238C60.3324 12.9011 59.6895 12.9011 59.2395 13.238L56.5877 15.2272L53.9359 13.238C53.4859 12.9011 52.8431 12.9011 52.3931 13.238L49.7252 15.2272L47.0573 13.238C46.4948 12.8049 45.6913 12.9332 45.2574 13.4947C45.0966 13.7192 45.0002 13.9919 45.0002 14.2647V33.5147H43.7145C42.3002 33.5147 41.1431 34.6697 41.1431 36.0813V47.6313C41.1431 47.7436 41.1591 47.8399 41.1752 47.9361L42.4288 52.909V74.5653C42.4288 75.9769 43.5859 77.1319 45.0002 77.1319H68.1431C69.5573 77.1319 70.7145 75.9769 70.7145 74.5653V52.9251L71.9681 47.9522C72.0002 47.8559 72.0002 47.7436 72.0002 47.6474V36.0974C72.0002 34.6697 70.8431 33.5147 69.4288 33.5147ZM47.5716 16.8313L48.9538 17.858C49.4038 18.1949 50.0466 18.1949 50.4966 17.858L53.1484 15.8688L55.8002 17.858C56.2502 18.1949 56.8931 18.1949 57.3431 17.858L60.0109 15.8688L62.6627 17.858C63.1127 18.1949 63.7556 18.1949 64.2056 17.858L65.5716 16.8313V33.5147H47.5716V16.8313ZM69.4288 47.4709L68.1752 52.4438C68.1431 52.5401 68.1431 52.6524 68.1431 52.7486V74.5653H45.0002V52.7647C45.0002 52.6524 44.9841 52.5561 44.9681 52.4599L43.7145 47.4869V36.0974H69.4288V47.4709Z" fill="#DEC27F"/>
<path d="M47.5714 51.4813H65.5714C66.2785 51.4813 66.8571 50.9038 66.8571 50.198V39.9313C66.8571 39.2254 66.2785 38.6479 65.5714 38.6479H47.5714C46.8642 38.6479 46.2856 39.2254 46.2856 39.9313V50.198C46.2856 50.9038 46.8642 51.4813 47.5714 51.4813ZM48.8571 41.2146H64.2856V48.9146H48.8571V41.2146Z" fill="#DEC27F"/>
<path d="M50.1431 21.9648H57.8573V24.5315H50.1431V21.9648Z" fill="#DEC27F"/>
<path d="M60.4287 21.9648H63.0001V24.5315H60.4287V21.9648Z" fill="#DEC27F"/>
<path d="M50.1431 27.0981H57.8573V29.6648H50.1431V27.0981Z" fill="#DEC27F"/>
<path d="M60.4287 27.0981H63.0001V29.6648H60.4287V27.0981Z" fill="#DEC27F"/>
<path d="M52.7144 43.7812H55.2858V46.3479H52.7144V43.7812Z" fill="#DEC27F"/>
<path d="M57.8569 43.7812H60.4284V46.3479H57.8569V43.7812Z" fill="#DEC27F"/>
</g>
<defs>
<clipPath id="clip0">
<rect width="72" height="77" fill="white" transform="translate(0 0.147949)"/>
</clipPath>
</defs>
</svg>
