<svg width="70" height="75" viewBox="0 0 70 75" fill="none" xmlns="http://www.w3.org/2000/svg">
<path d="M7.14233 25.2301C7.80488 25.4227 8.49863 25.0437 8.69111 24.3841C12.3936 11.747 24.2398 2.92102 37.4998 2.92102C39.6224 2.92102 41.7323 3.14083 43.7873 3.57697C43.7424 5.36446 44.5186 6.59062 45.0186 7.37817C45.1573 7.59682 45.3461 7.89495 45.3685 7.93586C45.3685 12.3905 44.4522 13.1159 44.4622 13.1184C42.4359 13.1184 39.111 14.9171 37.8609 17.2364C37.0935 18.6588 37.1559 20.1643 38.0346 21.476C38.6371 22.3742 39.1558 23.3728 39.6584 24.3393C40.7209 26.384 41.8996 28.6523 43.7509 28.6523C44.1421 28.6523 44.5646 28.5504 45.0221 28.3232C46.4796 27.599 47.5246 25.5394 48.5346 23.5493C48.9796 22.6722 49.6334 21.3853 50.0208 20.9766C51.2895 21.1481 51.9096 22.2883 52.7484 24.0946C53.3658 25.4238 54.0046 26.7964 55.2595 27.4201C57.372 28.4698 64.3183 27.3704 68.157 25.7505C68.7308 25.5083 69.0369 24.8821 68.8745 24.2834C66.2508 14.6437 59.1245 6.62527 49.8096 2.83513C49.1709 2.57426 48.4395 2.87865 48.1784 3.51335C47.9172 4.14805 48.2233 4.87359 48.8621 5.13314C57.1134 8.49209 63.5047 15.4423 66.1484 23.861C62.2584 25.2237 57.2659 25.6336 56.3772 25.1976C55.9073 24.9641 55.4347 23.9492 55.0184 23.0535C54.1471 21.1778 52.9534 18.6088 49.906 18.4746C48.331 18.3801 47.4434 20.1815 46.3022 22.4311C45.6322 23.7503 44.621 25.7441 43.8147 26.138C43.351 26.03 42.4297 24.2573 41.8797 23.1989C41.371 22.2201 40.7947 21.1106 40.1147 20.0983C39.746 19.5492 39.7309 19.0275 40.0648 18.409C40.9234 16.8164 43.4998 15.6027 44.4622 15.6027C46.7222 15.6027 47.8684 13.0239 47.8684 7.93571C47.8684 7.2128 47.4947 6.62396 47.1347 6.05375C46.6047 5.2202 46.0584 4.35695 46.3822 2.8836C46.5259 2.22896 46.121 1.57796 45.4672 1.41405C42.8786 0.765664 40.1973 0.436523 37.4998 0.436523C23.1349 0.436523 10.3011 9.99921 6.29111 23.6909C6.09731 24.3494 6.47978 25.0388 7.14233 25.2301Z" fill="#DEC27F"/>
<path d="M52.4948 33.3799C52.1336 33.4818 51.6398 33.6234 51.5085 33.6333C49.7811 33.6333 48.6861 34.9627 47.8873 35.9329C47.5823 36.3031 47.0311 36.9677 46.6798 36.9777C46.1149 36.6969 45.5212 36.5554 44.9149 36.5554C43.4411 36.5554 42.1649 37.4263 41.8798 38.6288C41.6786 39.4736 41.9749 40.6302 43.4061 41.3421C45.436 42.3508 47.5349 43.3932 48.4686 44.3212C49.111 44.9597 50.2223 45.3262 51.5185 45.3262C53.4873 45.3262 56.1048 44.3758 57.0035 41.6948C57.3584 40.6389 58.2073 39.8313 59.0285 39.0511C59.9809 38.143 60.8822 37.2871 60.8947 36.0583C60.9035 35.3328 60.5797 34.6396 59.9346 33.9973C59.0558 33.1252 57.8597 32.6816 56.3771 32.6816C54.9547 32.6816 53.5322 33.0855 52.4948 33.3799ZM58.3948 36.0247C58.336 36.2694 57.7135 36.862 57.2998 37.2558C56.356 38.1527 55.1822 39.2697 54.6323 40.9095C54.0149 42.7481 51.9298 42.8413 51.5185 42.8413C50.7897 42.8413 50.3323 42.65 50.2372 42.5656C49.0147 41.3505 46.8335 40.2661 44.5235 39.1194C44.5185 39.117 44.5147 39.1156 44.5097 39.1132C44.7446 39.0175 45.1797 39.0113 45.5622 39.2001C45.9659 39.4013 46.3809 39.5032 46.7934 39.5032C48.1771 39.5032 49.0508 38.4423 49.8209 37.5068C50.3847 36.8247 50.966 36.1179 51.5084 36.1179C51.9521 36.1179 52.4685 35.9713 53.181 35.7688C54.1272 35.5005 55.3047 35.1662 56.3772 35.1662C57.1835 35.1662 57.7685 35.3588 58.166 35.7538C58.3397 35.9279 58.3873 36.0247 58.3948 36.0247Z" fill="#DEC27F"/>
<path d="M69.6898 28.2645C69.5947 27.5838 68.9548 27.1106 68.2811 27.2037C67.5973 27.2982 67.1186 27.9255 67.2136 28.605C67.4036 29.9701 67.4999 31.3602 67.4999 32.7341C67.4999 49.0541 54.2374 62.3517 37.86 62.5443C33.415 59.7233 29.2488 56.2675 31.1051 51.9646C34.4376 44.2344 31.3364 41.3537 30.0113 40.1215L29.7625 39.8867C29.3837 39.5115 28.9563 39.2556 28.58 39.0309C27.665 38.4856 27.4188 38.339 27.9099 36.8744C28.235 35.9017 28.6674 35.4484 29.1662 34.9229C30.3224 33.7079 31.2061 32.4994 31.2061 28.9864C31.2061 26.9417 30.1624 25.3107 28.3424 24.512C26.2786 23.6052 23.5223 23.9256 22.0649 25.24C21.155 26.0623 20.8487 27.1816 21.2262 28.3082C22.1174 30.9603 20.0811 34.7938 16.2762 37.6296C15.2687 38.3799 14.9687 38.0357 14.7886 37.8308C13.6724 36.5525 13.7587 32.9166 14.6748 32.0074C15.2886 31.3975 15.4711 30.6187 15.1623 29.9243C14.1498 27.6423 7.69106 27.8188 6.40991 27.8785C5.80112 27.907 5.30117 28.3667 5.22617 28.9679C5.06738 30.2523 5 31.379 5 32.7342C5 47.6282 15.1487 60.5209 29.6787 64.0885C30.3463 64.2538 31.0262 63.8463 31.1912 63.1805C31.3574 62.5146 30.9474 61.8414 30.2774 61.6775C16.8662 58.3839 7.50004 46.4813 7.50004 32.7339C7.50004 31.8719 7.53007 31.1104 7.59628 30.3341C9.71122 30.3316 11.5075 30.575 12.4238 30.8533C10.99 33.0781 11.1475 37.4519 12.9 39.4593C14.1563 40.8978 15.9788 40.9573 17.7763 39.6171C22.5788 36.0382 24.8638 31.2893 23.5976 27.523C23.5576 27.4 23.5176 27.2845 23.7476 27.0771C24.4052 26.4833 26.0789 26.2323 27.3313 26.7839C28.2564 27.1901 28.7064 27.9106 28.7064 28.9864C28.7064 31.7901 28.1376 32.3888 27.3501 33.2161C26.7663 33.831 26.0389 34.5949 25.5376 36.0893C24.414 39.4446 26.2164 40.5202 27.2938 41.1624C27.5726 41.3277 27.8351 41.4841 27.9951 41.6431C28.0863 41.7338 28.19 41.8308 28.3038 41.9363C29.4038 42.9573 31.4489 44.8592 28.8076 50.9845C25.8126 57.9296 33.5351 62.7717 36.8326 64.84C37.0325 64.9641 37.2638 65.0312 37.5001 65.0312C55.4201 65.0312 70.0001 50.5422 70.0001 32.7341C69.9998 31.2458 69.8961 29.7426 69.6898 28.2645Z" fill="#DEC27F"/>
<path d="M58.3885 60.645C52.3185 65.1393 45.0948 67.5156 37.4997 67.5156C18.2011 67.5156 2.4999 51.9136 2.4999 32.7343C2.4999 32.0487 1.93989 31.4922 1.24995 31.4922C0.560008 31.4922 0 32.0487 0 32.7343C0 52.8665 16.15 69.3093 36.2499 69.969V73.7266C36.2499 74.4122 36.81 74.9688 37.4999 74.9688C38.1898 74.9688 38.7498 74.4122 38.7498 73.7266V69.9504C46.426 69.7032 53.7123 67.2064 59.8824 62.6376C60.4361 62.2277 60.5499 61.45 60.1374 60.8985C59.7247 60.3494 58.9435 60.2351 58.3885 60.645Z" fill="#DEC27F"/>
<path d="M38.4562 50.7676C36.8962 50.7676 35.0663 52.5515 34.3988 54.1527C33.8776 55.4036 34.0326 56.5701 34.825 57.3577C35.5712 58.0993 36.6788 58.5254 37.8638 58.5254C39.0489 58.5254 40.1563 58.0993 40.9038 57.3577C41.7338 56.5329 41.9364 55.3204 41.4738 53.9452C41.1625 53.016 40.5451 52.0334 39.8251 51.3165C39.4674 50.9627 38.9812 50.7676 38.4562 50.7676ZM39.1362 55.6C38.5812 56.1516 37.1387 56.1366 36.5987 55.6137C36.5812 55.5603 36.5824 55.2498 36.9136 54.7056C37.3448 53.9988 37.9536 53.4993 38.2837 53.3217C38.6386 53.7404 38.9462 54.2646 39.1024 54.7305C39.2412 55.1416 39.2537 55.4844 39.1362 55.6Z" fill="#DEC27F"/>
</svg>
