<svg width="75" height="71" viewBox="0 0 75 71" fill="none" xmlns="http://www.w3.org/2000/svg">
<path d="M33.7367 22.9958H34.987C35.6772 22.9958 36.2374 22.4356 36.2374 21.7455C36.2374 21.0553 35.6772 20.4951 34.987 20.4951H33.7367C33.0465 20.4951 32.4863 21.0553 32.4863 21.7455C32.4863 22.4356 33.0465 22.9958 33.7367 22.9958Z" fill="#DEC27F"/>
<path d="M14.9808 12.9919H16.2312C16.9213 12.9919 17.4815 12.4317 17.4815 11.7416C17.4815 11.0514 16.9213 10.4912 16.2312 10.4912H14.9808C14.2907 10.4912 13.7305 11.0514 13.7305 11.7416C13.7305 12.4317 14.2907 12.9919 14.9808 12.9919Z" fill="#DEC27F"/>
<path d="M27.5334 25.1872C27.7722 27.5905 28.8163 29.7061 28.8664 29.8062C30.0005 32.0732 31.7135 35.4992 37.4879 35.4992C43.2623 35.4992 44.9754 32.0732 46.1082 29.8062C46.1595 29.7061 47.2035 27.5905 47.4424 25.1872C48.2164 24.7621 48.7415 23.938 48.7415 22.9952V20.4944C48.7415 19.5703 48.2376 18.7625 47.4912 18.3299V17.9936C47.4912 13.856 44.1264 10.4912 39.9887 10.4912H34.9872C30.8495 10.4912 27.4847 13.856 27.4847 17.9936V18.3299C26.7383 18.7626 26.2344 19.5703 26.2344 20.4944V22.9952C26.2342 23.938 26.7594 24.762 27.5334 25.1872ZM28.7351 20.4944C29.4253 20.4944 29.9854 19.9342 29.9854 19.244V17.9936C29.9854 15.2352 32.2287 12.9921 34.987 12.9921H39.9886C42.7471 12.9921 44.9902 15.2353 44.9902 17.9936V19.244C44.9902 19.9342 45.5504 20.4944 46.2405 20.4944V22.9952C45.5504 22.9952 44.9902 23.5554 44.9902 24.2456C44.9902 26.4088 43.8822 28.667 43.8711 28.6883C42.5695 31.2916 41.4215 32.9984 37.4877 32.9984C33.5539 32.9984 32.4048 31.2916 31.1044 28.6894C31.0931 28.6669 29.9853 26.4087 29.9853 24.2456C29.9853 23.5554 29.4251 22.9952 28.7349 22.9952V20.4944H28.7351Z" fill="#DEC27F"/>
<path d="M17.4988 29.0577L16.4597 35.2872C16.3459 35.9687 16.8048 36.6126 17.4863 36.7265C17.5564 36.7377 17.6251 36.7427 17.694 36.7427C18.2941 36.7427 18.8243 36.31 18.9256 35.6987L19.7897 30.5258C21.594 30.5671 23.262 30.7233 24.7638 30.9934C25.4465 31.1172 26.093 30.6621 26.2155 29.9831C26.338 29.3029 25.8854 28.6527 25.2065 28.5314C23.2896 28.1875 21.1364 28.0137 18.8057 28.0137C18.1753 28.02 17.6025 28.4313 17.4988 29.0577Z" fill="#DEC27F"/>
<path d="M57.4945 12.9919H58.7449C59.435 12.9919 59.9952 12.4317 59.9952 11.7416C59.9952 11.0514 59.435 10.4912 58.7449 10.4912H57.4945C56.8043 10.4912 56.2441 11.0514 56.2441 11.7416C56.2441 12.4317 56.8043 12.9919 57.4945 12.9919Z" fill="#DEC27F"/>
<path d="M39.9886 22.9958H41.239C41.9292 22.9958 42.4894 22.4356 42.4894 21.7455C42.4894 21.0553 41.9292 20.4951 41.239 20.4951H39.9886C39.2985 20.4951 38.7383 21.0553 38.7383 21.7455C38.7381 22.4356 39.2983 22.9958 39.9886 22.9958Z" fill="#DEC27F"/>
<path d="M63.7465 12.9919H64.9968C65.687 12.9919 66.2472 12.4317 66.2472 11.7416C66.2472 11.0514 65.687 10.4912 64.9968 10.4912H63.7465C63.0563 10.4912 62.4961 11.0514 62.4961 11.7416C62.4961 12.4317 63.0563 12.9919 63.7465 12.9919Z" fill="#DEC27F"/>
<path d="M51.2913 15.1843C51.5302 17.5875 52.5742 19.7032 52.6242 19.8032C53.7584 22.0702 55.4713 25.4963 61.2457 25.4963C67.0201 25.4963 68.7332 22.0702 69.8672 19.8032C69.9172 19.7032 70.9613 17.5875 71.2002 15.1843C71.9742 14.7592 72.4993 13.9351 72.4993 12.9923V10.4914C72.4993 9.5674 71.9954 8.75957 71.249 8.327V7.99071C71.249 3.85309 67.8842 0.488281 63.7466 0.488281H58.745C54.6074 0.488281 51.2425 3.85309 51.2425 7.99071V8.327C50.4961 8.75971 49.9922 9.5674 49.9922 10.4914V12.9923C49.9922 13.9351 50.5174 14.759 51.2913 15.1843ZM52.493 10.4914C53.1832 10.4914 53.7434 9.93124 53.7434 9.24107V7.99071C53.7434 5.23225 55.9867 2.98914 58.745 2.98914H63.7466C66.505 2.98914 68.7481 5.2324 68.7481 7.99071V9.24107C68.7481 9.93124 69.3083 10.4914 69.9985 10.4914V12.9923C69.3083 12.9923 68.7481 13.5525 68.7481 14.2426C68.7481 16.4059 67.6403 18.6641 67.6291 18.6853C66.3274 21.2886 65.1795 22.9954 61.2457 22.9954C57.3107 22.9954 56.1628 21.2886 54.8623 18.6865C54.851 18.6639 53.7433 16.4057 53.7433 14.2426C53.7433 13.5525 53.1831 12.9923 52.4929 12.9923V10.4914H52.493Z" fill="#DEC27F"/>
<path d="M48.7379 29.9819C48.8592 30.6609 49.5019 31.1122 50.1896 30.9934C51.6939 30.7233 53.3681 30.567 55.1774 30.5258L56.0415 35.6987C56.1427 36.3102 56.6729 36.7427 57.2731 36.7427C57.3418 36.7427 57.4107 36.7377 57.4807 36.7265C58.1622 36.6126 58.621 35.9674 58.5073 35.2872L57.4682 29.0577C57.362 28.4313 56.8206 28.0187 56.1603 28.0137C53.8246 28.0137 51.6676 28.1875 49.7482 28.5314C49.0693 28.6527 48.6167 29.303 48.7379 29.9819Z" fill="#DEC27F"/>
<path d="M7.46067 29.059C7.35693 28.4301 6.77666 28.0187 6.14906 28.0137C4.3498 28.0137 2.64666 28.1187 1.08741 28.3237C0.402229 28.4137 -0.0792743 29.0428 0.0108428 29.7266C0.102132 30.4118 0.732366 30.8908 1.41374 30.8032C2.58292 30.6493 3.84075 30.5556 5.16994 30.5257L8.74605 51.9614C8.8473 52.5729 9.37745 53.0054 9.97765 53.0054C10.0452 53.0054 10.1152 53.0004 10.1853 52.988C10.8655 52.8754 11.3256 52.2303 11.2119 51.5487L7.46067 29.059Z" fill="#DEC27F"/>
<path d="M43.8213 38.0166C43.1798 38.0179 42.5897 38.4518 42.501 39.097L38.7497 66.5909C38.6573 67.2749 39.1348 67.9052 39.8201 67.9989C39.8777 68.0064 39.9339 68.0102 39.9903 68.0102C40.6067 68.0102 41.1419 67.5563 41.2282 66.9287L44.8307 40.5289C50.1599 40.659 54.2738 41.8143 56.2131 43.7486C57.0759 44.6102 57.4948 45.593 57.4948 46.7534V66.7596C57.4948 67.4497 58.055 68.0099 58.7452 68.0099C59.4354 68.0099 59.9956 67.4497 59.9956 66.7596V46.7531C59.9956 44.9213 59.3165 43.3145 57.9787 41.9791C55.4176 39.422 50.3923 38.0166 43.8213 38.0166Z" fill="#DEC27F"/>
<path d="M39.989 40.5009C39.989 39.1217 38.8675 38 37.4882 38C36.109 38 34.9873 39.1216 34.9873 40.5009C34.9873 41.4224 35.4937 42.2201 36.2377 42.654V51.7545C36.2377 52.4447 36.7979 53.0049 37.488 53.0049C38.1782 53.0049 38.7384 52.4447 38.7384 51.7545V42.654C39.4826 42.2203 39.989 41.4224 39.989 40.5009Z" fill="#DEC27F"/>
<path d="M51.2425 53.0049C50.5524 53.0049 49.9922 53.5651 49.9922 54.2552V69.2601C49.9922 69.9503 50.5524 70.5105 51.2425 70.5105C51.9327 70.5105 52.4929 69.9503 52.4929 69.2601V54.2552C52.4929 53.5651 51.9327 53.0049 51.2425 53.0049Z" fill="#DEC27F"/>
<path d="M65.0018 30.4979C65.0018 29.1188 63.8789 27.9971 62.4985 27.9971C61.118 27.9971 59.9951 29.1186 59.9951 30.4979C59.9951 31.4195 60.5015 32.216 61.2455 32.6499V41.7516C61.2455 42.4418 61.8057 43.002 62.4958 43.002C63.186 43.002 63.7462 42.4418 63.7462 41.7516V32.6536C64.4929 32.2197 65.0018 31.4206 65.0018 30.4979Z" fill="#DEC27F"/>
<path d="M73.9133 28.3237C72.3516 28.1187 70.6459 28.0137 68.8417 28.0137C68.1952 28.0137 67.6338 28.4301 67.5288 29.0577L63.7712 51.5487C63.6574 52.2303 64.1163 52.8754 64.7978 52.988C64.8679 53.0004 64.9366 53.0054 65.0055 53.0054C65.6057 53.0054 66.1358 52.5727 66.2371 51.9614L69.8195 30.5257C71.1524 30.5557 72.4153 30.6495 73.5857 30.8032C74.2647 30.8907 74.8986 30.4118 74.9886 29.7266C75.08 29.0414 74.5973 28.4139 73.9133 28.3237Z" fill="#DEC27F"/>
<path d="M8.72838 12.9919H9.97874C10.6689 12.9919 11.2291 12.4317 11.2291 11.7416C11.2291 11.0514 10.6689 10.4912 9.97874 10.4912H8.72838C8.03822 10.4912 7.47803 11.0514 7.47803 11.7416C7.47803 12.4317 8.03822 12.9919 8.72838 12.9919Z" fill="#DEC27F"/>
<path d="M12.4799 27.9971C11.1007 27.9971 9.979 29.1186 9.979 30.4979C9.979 31.4195 10.4854 32.2172 11.2294 32.6511V41.7516C11.2294 42.4418 11.7896 43.002 12.4797 43.002C13.1699 43.002 13.7301 42.4418 13.7301 41.7516V32.6511C14.474 32.2172 14.9804 31.4195 14.9804 30.4979C14.9807 29.1186 13.8592 27.9971 12.4799 27.9971Z" fill="#DEC27F"/>
<path d="M2.52557 15.1843C2.7631 17.5875 3.80845 19.7032 3.85842 19.8032C4.99258 22.0702 6.70554 25.4963 12.4799 25.4963C18.2543 25.4963 19.9674 22.0702 21.1002 19.8032C21.1515 19.7032 22.1956 17.5875 22.4344 15.1843C23.2084 14.7592 23.7336 13.9351 23.7336 12.9923V10.4914C23.7336 9.5674 23.2296 8.75957 22.4832 8.327V7.99071C22.4832 3.85309 19.1184 0.488281 14.9808 0.488281H9.97935C5.84173 0.488281 2.47692 3.85309 2.47692 7.99071V8.327C1.73049 8.75971 1.22656 9.5674 1.22656 10.4914V12.9923C1.22642 13.9351 1.75159 14.759 2.52557 15.1843ZM3.72728 10.4914C4.41744 10.4914 4.97763 9.93124 4.97763 9.24107V7.99071C4.97763 5.23225 7.22089 2.98914 9.9792 2.98914H14.9808C17.7392 2.98914 19.9823 5.2324 19.9823 7.99071V9.24107C19.9823 9.93124 20.5425 10.4914 21.2327 10.4914V12.9923C20.5425 12.9923 19.9823 13.5525 19.9823 14.2426C19.9823 16.4059 18.8744 18.6641 18.8633 18.6853C17.5616 21.2886 16.4137 22.9954 12.4799 22.9954C8.54495 22.9954 7.39834 21.2886 6.09655 18.6865C6.08527 18.6639 4.97749 16.4057 4.97749 14.2426C4.97749 13.5525 4.41729 12.9923 3.72713 12.9923V10.4914H3.72728Z" fill="#DEC27F"/>
<path d="M23.7333 53.0049C23.0431 53.0049 22.4829 53.5651 22.4829 54.2552V69.2601C22.4829 69.9503 23.0431 70.5105 23.7333 70.5105C24.4234 70.5105 24.9836 69.9503 24.9836 69.2601V54.2552C24.9838 53.5651 24.4236 53.0049 23.7333 53.0049Z" fill="#DEC27F"/>
<path d="M32.4753 39.0982C32.3903 38.4792 31.8626 38.0178 31.2387 38.0166C24.6691 38.0254 19.5699 39.4109 16.9978 41.9791C15.6587 43.3146 14.981 44.9213 14.981 46.7531V66.7596C14.981 67.4497 15.5411 68.0099 16.2313 68.0099C16.9215 68.0099 17.4817 67.4497 17.4817 66.7596V46.7531C17.4817 45.5927 17.9006 44.6099 18.7646 43.7483C20.7027 41.814 24.8165 40.6586 30.1457 40.5298L33.7482 66.9284C33.8345 67.5561 34.3696 68.0099 34.9848 68.0099C35.0424 68.0099 35.0986 68.0061 35.1561 67.9986C35.8412 67.9049 36.3189 67.2746 36.2265 66.5906L32.4753 39.0982Z" fill="#DEC27F"/>
</svg>
