<svg width="61" height="62" viewBox="0 0 61 62" fill="none" xmlns="http://www.w3.org/2000/svg">
<path d="M27.1795 18.136L26.4321 18.8004L26.4362 18.805L27.1795 18.136ZM9.6115 18.136L10.3548 18.805L10.3589 18.8004L9.6115 18.136ZM9.6115 46.264L10.3589 45.5996L10.3548 45.595L9.6115 46.264ZM27.1795 46.264L26.4362 45.595L26.4321 45.5996L27.1795 46.264ZM20.6515 41.272L21.5619 41.6858L21.5664 41.6759L21.5706 41.6659L20.6515 41.272ZM16.1395 41.272L15.2204 41.6659L15.2246 41.6759L15.2291 41.6858L16.1395 41.272ZM16.1395 23.128L15.2291 22.7142L15.2246 22.7241L15.2204 22.7341L16.1395 23.128ZM20.6515 23.128L21.5706 22.7341L21.5664 22.7241L21.5619 22.7142L20.6515 23.128ZM31.6355 32.2C31.6355 25.6108 30.7884 20.6511 27.9228 17.467L26.4362 18.805C28.7546 21.3809 29.6355 25.6372 29.6355 32.2H31.6355ZM27.9269 17.4716C25.7669 15.0416 22.6276 13.824 18.3955 13.824V15.824C22.2274 15.824 24.7521 16.9104 26.4321 18.8004L27.9269 17.4716ZM18.3955 13.824C14.1634 13.824 11.0241 15.0416 8.86409 17.4716L10.3589 18.8004C12.0389 16.9104 14.5636 15.824 18.3955 15.824V13.824ZM8.86821 17.467C6.00256 20.6511 5.1555 25.6108 5.1555 32.2H7.1555C7.1555 25.6372 8.03644 21.3809 10.3548 18.805L8.86821 17.467ZM5.1555 32.2C5.1555 38.7892 6.00256 43.7489 8.86821 46.933L10.3548 45.595C8.03644 43.0191 7.1555 38.7628 7.1555 32.2H5.1555ZM8.86409 46.9284C11.0241 49.3584 14.1634 50.576 18.3955 50.576V48.576C14.5636 48.576 12.0389 47.4896 10.3589 45.5996L8.86409 46.9284ZM18.3955 50.576C22.6276 50.576 25.7669 49.3584 27.9269 46.9284L26.4321 45.5996C24.7521 47.4896 22.2274 48.576 18.3955 48.576V50.576ZM27.9228 46.933C30.7884 43.7489 31.6355 38.7892 31.6355 32.2H29.6355C29.6355 38.7628 28.7546 43.0191 26.4362 45.595L27.9228 46.933ZM20.4195 32.2C20.4195 34.5434 20.3715 36.4444 20.2546 37.9169C20.1353 39.4209 19.9505 40.369 19.7324 40.8781L21.5706 41.6659C21.9285 40.831 22.1277 39.5951 22.2484 38.0751C22.3715 36.5236 22.4195 34.5606 22.4195 32.2H20.4195ZM19.7411 40.8582C19.5777 41.2178 19.3896 41.3932 19.2132 41.4924C19.0237 41.599 18.7638 41.664 18.3955 41.664V43.664C18.9872 43.664 19.6153 43.561 20.1938 43.2356C20.7854 42.9028 21.2453 42.3822 21.5619 41.6858L19.7411 40.8582ZM18.3955 41.664C18.0272 41.664 17.7673 41.599 17.5778 41.4924C17.4014 41.3932 17.2133 41.2178 17.0499 40.8582L15.2291 41.6858C15.5457 42.3822 16.0056 42.9028 16.5972 43.2356C17.1757 43.561 17.8038 43.664 18.3955 43.664V41.664ZM17.0586 40.8781C16.8405 40.369 16.6557 39.4209 16.5364 37.9169C16.4195 36.4444 16.3715 34.5434 16.3715 32.2H14.3715C14.3715 34.5606 14.4195 36.5236 14.5426 38.0751C14.6633 39.5951 14.8625 40.831 15.2204 41.6659L17.0586 40.8781ZM16.3715 32.2C16.3715 29.8566 16.4195 27.9556 16.5364 26.4831C16.6557 24.9791 16.8405 24.031 17.0586 23.5219L15.2204 22.7341C14.8625 23.569 14.6633 24.8049 14.5426 26.3249C14.4195 27.8764 14.3715 29.8394 14.3715 32.2H16.3715ZM17.0499 23.5418C17.2133 23.1822 17.4014 23.0068 17.5778 22.9076C17.7673 22.801 18.0272 22.736 18.3955 22.736V20.736C17.8038 20.736 17.1757 20.839 16.5972 21.1644C16.0056 21.4972 15.5457 22.0178 15.2291 22.7142L17.0499 23.5418ZM18.3955 22.736C18.7638 22.736 19.0237 22.801 19.2132 22.9076C19.3896 23.0068 19.5777 23.1822 19.7411 23.5418L21.5619 22.7142C21.2453 22.0178 20.7854 21.4972 20.1938 21.1644C19.6153 20.839 18.9872 20.736 18.3955 20.736V22.736ZM19.7324 23.5219C19.9505 24.031 20.1353 24.9791 20.2546 26.4831C20.3715 27.9556 20.4195 29.8566 20.4195 32.2H22.4195C22.4195 29.8394 22.3715 27.8764 22.2484 26.3249C22.1277 24.8049 21.9285 23.569 21.5706 22.7341L19.7324 23.5219ZM53.4258 49V50H54.4258V49H53.4258ZM53.4258 15.4H54.4258V14.4H53.4258V15.4ZM45.5058 15.4V14.4H45.2869L45.0881 14.4914L45.5058 15.4ZM37.7778 18.952L37.3601 18.0434L36.7778 18.3111V18.952H37.7778ZM37.7778 26.152H36.7778V27.6954L38.1864 27.0647L37.7778 26.152ZM44.2098 23.272H45.2098V21.7286L43.8011 22.3593L44.2098 23.272ZM44.2098 49H43.2098V50H44.2098V49ZM54.4258 49V15.4H52.4258V49H54.4258ZM53.4258 14.4H45.5058V16.4H53.4258V14.4ZM45.0881 14.4914L37.3601 18.0434L38.1954 19.8606L45.9234 16.3086L45.0881 14.4914ZM36.7778 18.952V26.152H38.7778V18.952H36.7778ZM38.1864 27.0647L44.6184 24.1847L43.8011 22.3593L37.3691 25.2393L38.1864 27.0647ZM43.2098 23.272V49H45.2098V23.272H43.2098ZM44.2098 50H53.4258V48H44.2098V50Z" fill="#5A523D"/>
<path d="M53.4258 49V50H54.4258V49H53.4258ZM53.4258 15.4H54.4258V14.4H53.4258V15.4ZM45.5058 15.4V14.4H45.2869L45.0881 14.4914L45.5058 15.4ZM37.7778 18.952L37.3601 18.0434L36.7778 18.3111V18.952H37.7778ZM37.7778 26.152H36.7778V27.6954L38.1864 27.0647L37.7778 26.152ZM44.2098 23.272H45.2098V21.7286L43.8011 22.3593L44.2098 23.272ZM44.2098 49H43.2098V50H44.2098V49ZM54.4258 49V15.4H52.4258V49H54.4258ZM53.4258 14.4H45.5058V16.4H53.4258V14.4ZM45.0881 14.4914L37.3601 18.0434L38.1954 19.8606L45.9234 16.3086L45.0881 14.4914ZM36.7778 18.952V26.152H38.7778V18.952H36.7778ZM38.1864 27.0647L44.6184 24.1847L43.8011 22.3593L37.3691 25.2393L38.1864 27.0647ZM43.2098 23.272V49H45.2098V23.272H43.2098ZM44.2098 50H53.4258V48H44.2098V50Z" fill="#DEC27F"/>
</svg>
