<svg width="89" height="62" viewBox="0 0 89 62" fill="none" xmlns="http://www.w3.org/2000/svg">
<path d="M38.2693 11.704L37.5218 12.3684L37.526 12.373L38.2693 11.704ZM11.9173 11.704L12.6606 12.373L12.6647 12.3684L11.9173 11.704ZM11.9173 53.896L12.6647 53.2316L12.6605 53.227L11.9173 53.896ZM38.2693 53.896L37.5259 53.227L37.5218 53.2316L38.2693 53.896ZM28.4773 46.408L29.3876 46.8218L29.3921 46.8119L29.3964 46.8019L28.4773 46.408ZM21.7093 46.408L20.7901 46.8019L20.7944 46.8119L20.7989 46.8218L21.7093 46.408ZM21.7093 19.192L20.7989 18.7782L20.7944 18.7881L20.7901 18.7981L21.7093 19.192ZM28.4773 19.192L29.3964 18.7981L29.3921 18.7881L29.3876 18.7782L28.4773 19.192ZM44.4533 32.8C44.4533 22.9228 43.1742 15.6591 39.0125 11.035L37.526 12.373C41.1403 16.3889 42.4533 22.9492 42.4533 32.8H44.4533ZM39.0167 11.0396C35.8966 7.5296 31.3413 5.736 25.0933 5.736V7.736C30.9412 7.736 34.8819 9.3984 37.5218 12.3684L39.0167 11.0396ZM25.0933 5.736C18.8452 5.736 14.2899 7.5296 11.1698 11.0396L12.6647 12.3684C15.3046 9.3984 19.2453 7.736 25.0933 7.736V5.736ZM11.174 11.035C7.01231 15.6591 5.73325 22.9228 5.73325 32.8H7.73325C7.73325 22.9492 9.04619 16.3889 12.6605 12.373L11.174 11.035ZM5.73325 32.8C5.73325 42.6772 7.01231 49.9409 11.174 54.565L12.6605 53.227C9.04619 49.2111 7.73325 42.6508 7.73325 32.8H5.73325ZM11.1698 54.5604C14.2899 58.0704 18.8452 59.864 25.0933 59.864V57.864C19.2453 57.864 15.3046 56.2016 12.6647 53.2316L11.1698 54.5604ZM25.0933 59.864C31.3413 59.864 35.8966 58.0704 39.0167 54.5604L37.5218 53.2316C34.8819 56.2016 30.9412 57.864 25.0933 57.864V59.864ZM39.0125 54.565C43.1742 49.9409 44.4533 42.6772 44.4533 32.8H42.4533C42.4533 42.6508 41.1403 49.2111 37.526 53.227L39.0125 54.565ZM28.6293 32.8C28.6293 36.3194 28.5572 39.1864 28.3804 41.4149C28.201 43.6749 27.9203 45.169 27.5581 46.0141L29.3964 46.8019C29.8982 45.631 30.1935 43.8491 30.3741 41.5731C30.5573 39.2656 30.6293 36.3366 30.6293 32.8H28.6293ZM27.5669 45.9942C27.2834 46.6178 26.9334 46.9672 26.565 47.1744C26.1835 47.389 25.7015 47.496 25.0933 47.496V49.496C25.925 49.496 26.775 49.351 27.5455 48.9176C28.3291 48.4768 28.9511 47.7822 29.3876 46.8218L27.5669 45.9942ZM25.0933 47.496C24.485 47.496 24.003 47.389 23.6215 47.1744C23.2531 46.9672 22.9031 46.6178 22.6196 45.9942L20.7989 46.8218C21.2354 47.7822 21.8574 48.4768 22.641 48.9176C23.4115 49.351 24.2615 49.496 25.0933 49.496V47.496ZM22.6284 46.0141C22.2662 45.169 21.9855 43.6749 21.8061 41.4149C21.6293 39.1864 21.5573 36.3194 21.5573 32.8H19.5573C19.5573 36.3366 19.6292 39.2656 19.8124 41.5731C19.993 43.8491 20.2883 45.631 20.7901 46.8019L22.6284 46.0141ZM21.5573 32.8C21.5573 29.2806 21.6293 26.4136 21.8061 24.1851C21.9855 21.9251 22.2662 20.431 22.6284 19.5859L20.7901 18.7981C20.2883 19.969 19.993 21.7509 19.8124 24.0269C19.6292 26.3344 19.5573 29.2634 19.5573 32.8H21.5573ZM22.6196 19.6058C22.9031 18.9822 23.2531 18.6328 23.6215 18.4256C24.003 18.211 24.485 18.104 25.0933 18.104V16.104C24.2615 16.104 23.4115 16.249 22.641 16.6824C21.8574 17.1232 21.2354 17.8178 20.7989 18.7782L22.6196 19.6058ZM25.0933 18.104C25.7015 18.104 26.1835 18.211 26.565 18.4256C26.9334 18.6328 27.2834 18.9822 27.5669 19.6058L29.3876 18.7782C28.9511 17.8178 28.3291 17.1232 27.5455 16.6824C26.775 16.249 25.925 16.104 25.0933 16.104V18.104ZM27.5581 19.5859C27.9203 20.431 28.201 21.9251 28.3804 24.1851C28.5572 26.4136 28.6293 29.2806 28.6293 32.8H30.6293C30.6293 29.2634 30.5573 26.3344 30.3741 24.0269C30.1935 21.7509 29.8982 19.969 29.3964 18.7981L27.5581 19.5859ZM77.6386 58V59H78.6386V58H77.6386ZM77.6386 7.6H78.6386V6.6H77.6386V7.6ZM65.7586 7.6V6.6H65.5398L65.341 6.69138L65.7586 7.6ZM54.1666 12.928L53.749 12.0194L53.1666 12.2871V12.928H54.1666ZM54.1666 23.728H53.1666V25.2714L54.5753 24.6407L54.1666 23.728ZM63.8146 19.408H64.8146V17.8646L63.406 18.4953L63.8146 19.408ZM63.8146 58H62.8146V59H63.8146V58ZM78.6386 58V7.6H76.6386V58H78.6386ZM77.6386 6.6H65.7586V8.6H77.6386V6.6ZM65.341 6.69138L53.749 12.0194L54.5843 13.8366L66.1763 8.50862L65.341 6.69138ZM53.1666 12.928V23.728H55.1666V12.928H53.1666ZM54.5753 24.6407L64.2233 20.3207L63.406 18.4953L53.758 22.8153L54.5753 24.6407ZM62.8146 19.408V58H64.8146V19.408H62.8146ZM63.8146 59H77.6386V57H63.8146V59Z" fill="#5A523D"/>
<path d="M77.6386 58V59H78.6386V58H77.6386ZM77.6386 7.6H78.6386V6.6H77.6386V7.6ZM65.7586 7.6V6.6H65.5398L65.341 6.69138L65.7586 7.6ZM54.1666 12.928L53.749 12.0194L53.1666 12.2871V12.928H54.1666ZM54.1666 23.728H53.1666V25.2714L54.5753 24.6407L54.1666 23.728ZM63.8146 19.408H64.8146V17.8646L63.406 18.4953L63.8146 19.408ZM63.8146 58H62.8146V59H63.8146V58ZM78.6386 58V7.6H76.6386V58H78.6386ZM77.6386 6.6H65.7586V8.6H77.6386V6.6ZM65.341 6.69138L53.749 12.0194L54.5843 13.8366L66.1763 8.50862L65.341 6.69138ZM53.1666 12.928V23.728H55.1666V12.928H53.1666ZM54.5753 24.6407L64.2233 20.3207L63.406 18.4953L53.758 22.8153L54.5753 24.6407ZM62.8146 19.408V58H64.8146V19.408H62.8146ZM63.8146 59H77.6386V57H63.8146V59Z" fill="#DEC27F"/>
</svg>
