<svg width="64" height="62" viewBox="0 0 64 62" fill="none" xmlns="http://www.w3.org/2000/svg">
<path d="M30.1795 18.136L29.4321 18.8004L29.4362 18.805L30.1795 18.136ZM12.6115 18.136L13.3548 18.805L13.3589 18.8004L12.6115 18.136ZM12.6115 46.264L13.3589 45.5996L13.3548 45.595L12.6115 46.264ZM30.1795 46.264L29.4362 45.595L29.4321 45.5996L30.1795 46.264ZM23.6515 41.272L24.5619 41.6858L24.5664 41.6759L24.5706 41.6659L23.6515 41.272ZM19.1395 41.272L18.2204 41.6659L18.2246 41.6759L18.2291 41.6858L19.1395 41.272ZM19.1395 23.128L18.2291 22.7142L18.2246 22.7241L18.2204 22.7341L19.1395 23.128ZM23.6515 23.128L24.5706 22.7341L24.5664 22.7241L24.5619 22.7142L23.6515 23.128ZM34.6355 32.2C34.6355 25.6108 33.7884 20.6511 30.9228 17.467L29.4362 18.805C31.7546 21.3809 32.6355 25.6372 32.6355 32.2H34.6355ZM30.9269 17.4716C28.7669 15.0416 25.6276 13.824 21.3955 13.824V15.824C25.2274 15.824 27.7521 16.9104 29.4321 18.8004L30.9269 17.4716ZM21.3955 13.824C17.1634 13.824 14.0241 15.0416 11.8641 17.4716L13.3589 18.8004C15.0389 16.9104 17.5636 15.824 21.3955 15.824V13.824ZM11.8682 17.467C9.00256 20.6511 8.1555 25.6108 8.1555 32.2H10.1555C10.1555 25.6372 11.0364 21.3809 13.3548 18.805L11.8682 17.467ZM8.1555 32.2C8.1555 38.7892 9.00256 43.7489 11.8682 46.933L13.3548 45.595C11.0364 43.0191 10.1555 38.7628 10.1555 32.2H8.1555ZM11.8641 46.9284C14.0241 49.3584 17.1634 50.576 21.3955 50.576V48.576C17.5636 48.576 15.0389 47.4896 13.3589 45.5996L11.8641 46.9284ZM21.3955 50.576C25.6276 50.576 28.7669 49.3584 30.9269 46.9284L29.4321 45.5996C27.7521 47.4896 25.2274 48.576 21.3955 48.576V50.576ZM30.9228 46.933C33.7884 43.7489 34.6355 38.7892 34.6355 32.2H32.6355C32.6355 38.7628 31.7546 43.0191 29.4362 45.595L30.9228 46.933ZM23.4195 32.2C23.4195 34.5434 23.3715 36.4444 23.2546 37.9169C23.1353 39.4209 22.9505 40.369 22.7324 40.8781L24.5706 41.6659C24.9285 40.831 25.1277 39.5951 25.2484 38.0751C25.3715 36.5236 25.4195 34.5606 25.4195 32.2H23.4195ZM22.7411 40.8582C22.5777 41.2178 22.3896 41.3932 22.2132 41.4924C22.0237 41.599 21.7638 41.664 21.3955 41.664V43.664C21.9872 43.664 22.6153 43.561 23.1938 43.2356C23.7854 42.9028 24.2453 42.3822 24.5619 41.6858L22.7411 40.8582ZM21.3955 41.664C21.0272 41.664 20.7673 41.599 20.5778 41.4924C20.4014 41.3932 20.2133 41.2178 20.0499 40.8582L18.2291 41.6858C18.5457 42.3822 19.0056 42.9028 19.5972 43.2356C20.1757 43.561 20.8038 43.664 21.3955 43.664V41.664ZM20.0586 40.8781C19.8405 40.369 19.6557 39.4209 19.5364 37.9169C19.4195 36.4444 19.3715 34.5434 19.3715 32.2H17.3715C17.3715 34.5606 17.4195 36.5236 17.5426 38.0751C17.6633 39.5951 17.8625 40.831 18.2204 41.6659L20.0586 40.8781ZM19.3715 32.2C19.3715 29.8566 19.4195 27.9556 19.5364 26.4831C19.6557 24.9791 19.8405 24.031 20.0586 23.5219L18.2204 22.7341C17.8625 23.569 17.6633 24.8049 17.5426 26.3249C17.4195 27.8764 17.3715 29.8394 17.3715 32.2H19.3715ZM20.0499 23.5418C20.2133 23.1822 20.4014 23.0068 20.5778 22.9076C20.7673 22.801 21.0272 22.736 21.3955 22.736V20.736C20.8038 20.736 20.1757 20.839 19.5972 21.1644C19.0056 21.4972 18.5457 22.0178 18.2291 22.7142L20.0499 23.5418ZM21.3955 22.736C21.7638 22.736 22.0237 22.801 22.2132 22.9076C22.3896 23.0068 22.5777 23.1822 22.7411 23.5418L24.5619 22.7142C24.2453 22.0178 23.7854 21.4972 23.1938 21.1644C22.6153 20.839 21.9872 20.736 21.3955 20.736V22.736ZM22.7324 23.5219C22.9505 24.031 23.1353 24.9791 23.2546 26.4831C23.3715 27.9556 23.4195 29.8566 23.4195 32.2H25.4195C25.4195 29.8394 25.3715 27.8764 25.2484 26.3249C25.1277 24.8049 24.9285 23.569 24.5706 22.7341L22.7324 23.5219ZM38.3298 26.632H37.3298V27.632H38.3298V26.632ZM47.5457 26.632V27.632H48.5457V26.632H47.5457ZM49.7537 29.944L48.9987 29.2883L48.9982 29.289L49.7537 29.944ZM38.8097 42.568L38.0542 41.913L37.8097 42.1949V42.568H38.8097ZM38.8097 49H37.8097V50H38.8097V49ZM61.6578 49V50H62.6578V49H61.6578ZM61.6578 42.088H62.6578V41.088H61.6578V42.088ZM50.1858 42.088L49.4343 41.4283L47.9772 43.088H50.1858V42.088ZM57.4338 33.832L56.6826 33.1719L56.6823 33.1723L57.4338 33.832ZM62.1778 24.952C62.1778 21.9726 61.1026 19.1709 58.9672 17.1155C56.8297 15.0582 53.7096 13.824 49.7537 13.824V15.824C53.2859 15.824 55.8778 16.9178 57.5803 18.5565C59.2849 20.1971 60.1778 22.4594 60.1778 24.952H62.1778ZM49.7537 13.824C45.7979 13.824 42.6778 15.0582 40.5403 17.1155C38.4049 19.1709 37.3298 21.9726 37.3298 24.952H39.3298C39.3298 22.4594 40.2226 20.1971 41.9272 18.5565C43.6297 16.9178 46.2216 15.824 49.7537 15.824V13.824ZM37.3298 24.952V26.632H39.3298V24.952H37.3298ZM38.3298 27.632H47.5457V25.632H38.3298V27.632ZM48.5457 26.632V24.76H46.5457V26.632H48.5457ZM48.5457 24.76C48.5457 23.8152 48.6999 23.3147 48.8741 23.0668C48.9935 22.8967 49.1955 22.736 49.7537 22.736V20.736C48.728 20.736 47.826 21.0793 47.2374 21.9172C46.7036 22.6773 46.5457 23.6888 46.5457 24.76H48.5457ZM49.7537 22.736C50.312 22.736 50.514 22.8967 50.6334 23.0668C50.8076 23.3147 50.9618 23.8152 50.9618 24.76H52.9618C52.9618 23.6888 52.8039 22.6773 52.2701 21.9172C51.6815 21.0793 50.7795 20.736 49.7537 20.736V22.736ZM50.9618 24.76C50.9618 25.6814 50.8243 26.3806 50.5354 27.0415C50.2397 27.7182 49.7615 28.41 48.9987 29.2883L50.5088 30.5997C51.33 29.654 51.9558 28.7858 52.3681 27.8425C52.7872 26.8834 52.9618 25.9026 52.9618 24.76H50.9618ZM48.9982 29.289L38.0542 41.913L39.5653 43.223L50.5093 30.599L48.9982 29.289ZM37.8097 42.568V49H39.8097V42.568H37.8097ZM38.8097 50H61.6578V48H38.8097V50ZM62.6578 49V42.088H60.6578V49H62.6578ZM61.6578 41.088H50.1858V43.088H61.6578V41.088ZM50.9372 42.7477L58.1852 34.4917L56.6823 33.1723L49.4343 41.4283L50.9372 42.7477ZM58.1849 34.4921C59.6066 32.8744 60.6209 31.4621 61.2691 29.9474C61.9238 28.4177 62.1778 26.8483 62.1778 24.952H60.1778C60.1778 26.6557 59.9517 27.9423 59.4304 29.1606C58.9026 30.3939 58.0449 31.6216 56.6826 33.1719L58.1849 34.4921Z" fill="#5A523D"/>
<path d="M38.3298 26.632H37.3298V27.632H38.3298V26.632ZM47.5457 26.632V27.632H48.5457V26.632H47.5457ZM49.7537 29.944L48.9987 29.2883L48.9982 29.289L49.7537 29.944ZM38.8097 42.568L38.0542 41.913L37.8097 42.1949V42.568H38.8097ZM38.8097 49H37.8097V50H38.8097V49ZM61.6578 49V50H62.6578V49H61.6578ZM61.6578 42.088H62.6578V41.088H61.6578V42.088ZM50.1858 42.088L49.4343 41.4283L47.9772 43.088H50.1858V42.088ZM57.4338 33.832L56.6826 33.1719L56.6823 33.1723L57.4338 33.832ZM62.1778 24.952C62.1778 21.9726 61.1026 19.1709 58.9672 17.1155C56.8297 15.0582 53.7096 13.824 49.7537 13.824V15.824C53.2859 15.824 55.8778 16.9178 57.5803 18.5565C59.2849 20.1971 60.1778 22.4594 60.1778 24.952H62.1778ZM49.7537 13.824C45.7979 13.824 42.6778 15.0582 40.5403 17.1155C38.4049 19.1709 37.3298 21.9726 37.3298 24.952H39.3298C39.3298 22.4594 40.2226 20.1971 41.9272 18.5565C43.6297 16.9178 46.2216 15.824 49.7537 15.824V13.824ZM37.3298 24.952V26.632H39.3298V24.952H37.3298ZM38.3298 27.632H47.5457V25.632H38.3298V27.632ZM48.5457 26.632V24.76H46.5457V26.632H48.5457ZM48.5457 24.76C48.5457 23.8152 48.6999 23.3147 48.8741 23.0668C48.9935 22.8967 49.1955 22.736 49.7537 22.736V20.736C48.728 20.736 47.826 21.0793 47.2374 21.9172C46.7036 22.6773 46.5457 23.6888 46.5457 24.76H48.5457ZM49.7537 22.736C50.312 22.736 50.514 22.8967 50.6334 23.0668C50.8076 23.3147 50.9618 23.8152 50.9618 24.76H52.9618C52.9618 23.6888 52.8039 22.6773 52.2701 21.9172C51.6815 21.0793 50.7795 20.736 49.7537 20.736V22.736ZM50.9618 24.76C50.9618 25.6814 50.8243 26.3806 50.5354 27.0415C50.2397 27.7182 49.7615 28.41 48.9987 29.2883L50.5088 30.5997C51.33 29.654 51.9558 28.7858 52.3681 27.8425C52.7872 26.8834 52.9618 25.9026 52.9618 24.76H50.9618ZM48.9982 29.289L38.0542 41.913L39.5653 43.223L50.5093 30.599L48.9982 29.289ZM37.8097 42.568V49H39.8097V42.568H37.8097ZM38.8097 50H61.6578V48H38.8097V50ZM62.6578 49V42.088H60.6578V49H62.6578ZM61.6578 41.088H50.1858V43.088H61.6578V41.088ZM50.9372 42.7477L58.1852 34.4917L56.6823 33.1723L49.4343 41.4283L50.9372 42.7477ZM58.1849 34.4921C59.6066 32.8744 60.6209 31.4621 61.2691 29.9474C61.9238 28.4177 62.1778 26.8483 62.1778 24.952H60.1778C60.1778 26.6557 59.9517 27.9423 59.4304 29.1606C58.9026 30.3939 58.0449 31.6216 56.6826 33.1719L58.1849 34.4921Z" fill="#DEC27F"/>
</svg>
