<svg width="59" height="62" viewBox="0 0 59 62" fill="none" xmlns="http://www.w3.org/2000/svg">
<path d="M25.1795 18.136L24.4321 18.8004L24.4362 18.805L25.1795 18.136ZM7.6115 18.136L8.35481 18.805L8.35891 18.8004L7.6115 18.136ZM7.6115 46.264L8.35892 45.5996L8.35479 45.595L7.6115 46.264ZM25.1795 46.264L24.4362 45.595L24.4321 45.5996L25.1795 46.264ZM18.6515 41.272L19.5619 41.6858L19.5664 41.6759L19.5706 41.6659L18.6515 41.272ZM14.1395 41.272L13.2204 41.6659L13.2246 41.6759L13.2291 41.6858L14.1395 41.272ZM14.1395 23.128L13.2291 22.7142L13.2246 22.7241L13.2204 22.7341L14.1395 23.128ZM18.6515 23.128L19.5706 22.7341L19.5664 22.7241L19.5619 22.7142L18.6515 23.128ZM29.6355 32.2C29.6355 25.6108 28.7884 20.6511 25.9228 17.467L24.4362 18.805C26.7546 21.3809 27.6355 25.6372 27.6355 32.2H29.6355ZM25.9269 17.4716C23.7669 15.0416 20.6276 13.824 16.3955 13.824V15.824C20.2274 15.824 22.7521 16.9104 24.4321 18.8004L25.9269 17.4716ZM16.3955 13.824C12.1634 13.824 9.02412 15.0416 6.86409 17.4716L8.35891 18.8004C10.0389 16.9104 12.5636 15.824 16.3955 15.824V13.824ZM6.86821 17.467C4.00256 20.6511 3.1555 25.6108 3.1555 32.2H5.1555C5.1555 25.6372 6.03644 21.3809 8.35479 18.805L6.86821 17.467ZM3.1555 32.2C3.1555 38.7892 4.00256 43.7489 6.86821 46.933L8.35479 45.595C6.03644 43.0191 5.1555 38.7628 5.1555 32.2H3.1555ZM6.86409 46.9284C9.02412 49.3584 12.1634 50.576 16.3955 50.576V48.576C12.5636 48.576 10.0389 47.4896 8.35891 45.5996L6.86409 46.9284ZM16.3955 50.576C20.6276 50.576 23.7669 49.3584 25.9269 46.9284L24.4321 45.5996C22.7521 47.4896 20.2274 48.576 16.3955 48.576V50.576ZM25.9228 46.933C28.7884 43.7489 29.6355 38.7892 29.6355 32.2H27.6355C27.6355 38.7628 26.7546 43.0191 24.4362 45.595L25.9228 46.933ZM18.4195 32.2C18.4195 34.5434 18.3715 36.4444 18.2546 37.9169C18.1353 39.4209 17.9505 40.369 17.7324 40.8781L19.5706 41.6659C19.9285 40.831 20.1277 39.5951 20.2484 38.0751C20.3715 36.5236 20.4195 34.5606 20.4195 32.2H18.4195ZM17.7411 40.8582C17.5777 41.2178 17.3896 41.3932 17.2132 41.4924C17.0237 41.599 16.7638 41.664 16.3955 41.664V43.664C16.9872 43.664 17.6153 43.561 18.1938 43.2356C18.7854 42.9028 19.2453 42.3822 19.5619 41.6858L17.7411 40.8582ZM16.3955 41.664C16.0272 41.664 15.7673 41.599 15.5778 41.4924C15.4014 41.3932 15.2133 41.2178 15.0499 40.8582L13.2291 41.6858C13.5457 42.3822 14.0056 42.9028 14.5972 43.2356C15.1757 43.561 15.8038 43.664 16.3955 43.664V41.664ZM15.0586 40.8781C14.8405 40.369 14.6557 39.4209 14.5364 37.9169C14.4195 36.4444 14.3715 34.5434 14.3715 32.2H12.3715C12.3715 34.5606 12.4195 36.5236 12.5426 38.0751C12.6633 39.5951 12.8625 40.831 13.2204 41.6659L15.0586 40.8781ZM14.3715 32.2C14.3715 29.8566 14.4195 27.9556 14.5364 26.4831C14.6557 24.9791 14.8405 24.031 15.0586 23.5219L13.2204 22.7341C12.8625 23.569 12.6633 24.8049 12.5426 26.3249C12.4195 27.8764 12.3715 29.8394 12.3715 32.2H14.3715ZM15.0499 23.5418C15.2133 23.1822 15.4014 23.0068 15.5778 22.9076C15.7673 22.801 16.0272 22.736 16.3955 22.736V20.736C15.8038 20.736 15.1757 20.839 14.5972 21.1644C14.0056 21.4972 13.5457 22.0178 13.2291 22.7142L15.0499 23.5418ZM16.3955 22.736C16.7638 22.736 17.0237 22.801 17.2132 22.9076C17.3896 23.0068 17.5777 23.1822 17.7411 23.5418L19.5619 22.7142C19.2453 22.0178 18.7854 21.4972 18.1938 21.1644C17.6153 20.839 16.9872 20.736 16.3955 20.736V22.736ZM17.7324 23.5219C17.9505 24.031 18.1353 24.9791 18.2546 26.4831C18.3715 27.9556 18.4195 29.8566 18.4195 32.2H20.4195C20.4195 29.8394 20.3715 27.8764 20.2484 26.3249C20.1277 24.8049 19.9285 23.569 19.5706 22.7341L17.7324 23.5219ZM50.3698 31.144L50.1078 30.1789L50.1694 32.1237L50.3698 31.144ZM33.7137 25.192H32.7137V26.192H33.7137V25.192ZM42.5938 25.192V26.192H43.5938V25.192H42.5938ZM41.2018 27.928V26.928H40.2018V27.928H41.2018ZM41.2018 34.84H40.2018V35.84H41.2018V34.84ZM41.9217 38.152H42.9217V37.152H41.9217V38.152ZM32.7057 38.152V37.152H31.7057V38.152H32.7057ZM31.7057 39.496C31.7057 42.751 32.9878 45.5535 35.2957 47.5279C37.5905 49.4911 40.8261 50.576 44.6577 50.576V48.576C41.1934 48.576 38.453 47.5969 36.5958 46.0081C34.7517 44.4305 33.7057 42.193 33.7057 39.496H31.7057ZM44.6577 50.576C48.4894 50.576 51.725 49.4911 54.0198 47.5279C56.3277 45.5535 57.6098 42.751 57.6098 39.496H55.6098C55.6098 42.193 54.5638 44.4305 52.7197 46.0081C50.8625 47.5969 48.1221 48.576 44.6577 48.576V50.576ZM57.6098 39.496C57.6098 37.1644 57.0717 35.0703 55.8854 33.4219C54.6885 31.7587 52.8961 30.6401 50.5701 30.1643L50.1694 32.1237C52.0674 32.5119 53.395 33.3853 54.2621 34.5901C55.1398 35.8097 55.6098 37.4596 55.6098 39.496H57.6098ZM50.6317 32.1091C52.4796 31.6075 53.9982 30.6855 55.0467 29.2827C56.0934 27.8825 56.6018 26.0968 56.6018 23.992H54.6018C54.6018 25.7752 54.1741 27.1095 53.4448 28.0853C52.7173 29.0585 51.6199 29.7685 50.1078 30.1789L50.6317 32.1091ZM56.6018 23.992C56.6018 21.009 55.4576 18.4318 53.3363 16.6146C51.2293 14.8095 48.2429 13.824 44.6577 13.824V15.824C47.8886 15.824 50.3742 16.7105 52.0352 18.1334C53.6819 19.5442 54.6018 21.551 54.6018 23.992H56.6018ZM44.6577 13.824C41.0825 13.824 38.0859 14.7687 35.9696 16.6289C33.8365 18.5038 32.7137 21.2076 32.7137 24.472H34.7137C34.7137 21.6884 35.655 19.5682 37.2899 18.1311C38.9416 16.6793 41.417 15.824 44.6577 15.824V13.824ZM32.7137 24.472V25.192H34.7137V24.472H32.7137ZM33.7137 26.192H42.5938V24.192H33.7137V26.192ZM43.5938 25.192V24.472H41.5938V25.192H43.5938ZM43.5938 24.472C43.5938 23.5789 43.7473 23.167 43.8832 22.9874C43.9686 22.8745 44.1326 22.736 44.6577 22.736V20.736C43.7429 20.736 42.8749 21.0055 42.2883 21.7806C41.7522 22.489 41.5938 23.4451 41.5938 24.472H43.5938ZM44.6577 22.736C45.1829 22.736 45.3469 22.8745 45.4323 22.9874C45.5682 23.167 45.7218 23.5789 45.7218 24.472H47.7218C47.7218 23.4451 47.5633 22.489 47.0272 21.7806C46.4406 21.0055 45.5726 20.736 44.6577 20.736V22.736ZM45.7218 24.472C45.7218 25.7643 45.4234 26.2677 45.1501 26.5001C44.8384 26.765 44.2799 26.928 43.2178 26.928V28.928C44.3636 28.928 45.5571 28.779 46.4454 28.0239C47.3721 27.2363 47.7218 26.0117 47.7218 24.472H45.7218ZM43.2178 26.928H41.2018V28.928H43.2178V26.928ZM40.2018 27.928V34.84H42.2018V27.928H40.2018ZM41.2018 35.84H43.2178V33.84H41.2018V35.84ZM43.2178 35.84C44.7593 35.84 45.422 36.0437 45.7673 36.3734C46.1029 36.6938 46.3938 37.3859 46.3938 39.16H48.3938C48.3938 37.3341 48.1326 35.8662 47.1482 34.9266C46.1735 33.9963 44.7482 33.84 43.2178 33.84V35.84ZM46.3938 39.16C46.3938 40.2096 46.2084 40.8262 45.9589 41.1645C45.7563 41.4392 45.4125 41.664 44.6577 41.664V43.664C45.871 43.664 46.8952 43.2648 47.5686 42.3515C48.1951 41.5018 48.3938 40.3664 48.3938 39.16H46.3938ZM44.6577 41.664C43.903 41.664 43.5592 41.4392 43.3566 41.1645C43.1071 40.8262 42.9217 40.2096 42.9217 39.16H40.9217C40.9217 40.3664 41.1204 41.5018 41.7469 42.3515C42.4203 43.2648 43.4445 43.664 44.6577 43.664V41.664ZM42.9217 39.16V38.152H40.9217V39.16H42.9217ZM41.9217 37.152H32.7057V39.152H41.9217V37.152ZM31.7057 38.152V39.496H33.7057V38.152H31.7057Z" fill="#5A523D"/>
<path d="M50.3698 31.144L50.1078 30.1789L50.1694 32.1237L50.3698 31.144ZM33.7137 25.192H32.7137V26.192H33.7137V25.192ZM42.5938 25.192V26.192H43.5938V25.192H42.5938ZM41.2018 27.928V26.928H40.2018V27.928H41.2018ZM41.2018 34.84H40.2018V35.84H41.2018V34.84ZM41.9217 38.152H42.9217V37.152H41.9217V38.152ZM32.7057 38.152V37.152H31.7057V38.152H32.7057ZM31.7057 39.496C31.7057 42.751 32.9878 45.5535 35.2957 47.5279C37.5905 49.4911 40.8261 50.576 44.6577 50.576V48.576C41.1934 48.576 38.453 47.5969 36.5958 46.0081C34.7517 44.4305 33.7057 42.193 33.7057 39.496H31.7057ZM44.6577 50.576C48.4894 50.576 51.725 49.4911 54.0198 47.5279C56.3277 45.5535 57.6098 42.751 57.6098 39.496H55.6098C55.6098 42.193 54.5638 44.4305 52.7197 46.0081C50.8625 47.5969 48.1221 48.576 44.6577 48.576V50.576ZM57.6098 39.496C57.6098 37.1644 57.0717 35.0703 55.8854 33.4219C54.6885 31.7587 52.8961 30.6401 50.5701 30.1643L50.1694 32.1237C52.0674 32.5119 53.395 33.3853 54.2621 34.5901C55.1398 35.8097 55.6098 37.4596 55.6098 39.496H57.6098ZM50.6317 32.1091C52.4796 31.6075 53.9982 30.6855 55.0467 29.2827C56.0934 27.8825 56.6018 26.0968 56.6018 23.992H54.6018C54.6018 25.7752 54.1741 27.1095 53.4448 28.0853C52.7173 29.0585 51.6199 29.7685 50.1078 30.1789L50.6317 32.1091ZM56.6018 23.992C56.6018 21.009 55.4576 18.4318 53.3363 16.6146C51.2293 14.8095 48.2429 13.824 44.6577 13.824V15.824C47.8886 15.824 50.3742 16.7105 52.0352 18.1334C53.6819 19.5442 54.6018 21.551 54.6018 23.992H56.6018ZM44.6577 13.824C41.0825 13.824 38.0859 14.7687 35.9696 16.6289C33.8365 18.5038 32.7137 21.2076 32.7137 24.472H34.7137C34.7137 21.6884 35.655 19.5682 37.2899 18.1311C38.9416 16.6793 41.417 15.824 44.6577 15.824V13.824ZM32.7137 24.472V25.192H34.7137V24.472H32.7137ZM33.7137 26.192H42.5938V24.192H33.7137V26.192ZM43.5938 25.192V24.472H41.5938V25.192H43.5938ZM43.5938 24.472C43.5938 23.5789 43.7473 23.167 43.8832 22.9874C43.9686 22.8745 44.1326 22.736 44.6577 22.736V20.736C43.7429 20.736 42.8749 21.0055 42.2883 21.7806C41.7522 22.489 41.5938 23.4451 41.5938 24.472H43.5938ZM44.6577 22.736C45.1829 22.736 45.3469 22.8745 45.4323 22.9874C45.5682 23.167 45.7218 23.5789 45.7218 24.472H47.7218C47.7218 23.4451 47.5633 22.489 47.0272 21.7806C46.4406 21.0055 45.5726 20.736 44.6577 20.736V22.736ZM45.7218 24.472C45.7218 25.7643 45.4234 26.2677 45.1501 26.5001C44.8384 26.765 44.2799 26.928 43.2178 26.928V28.928C44.3636 28.928 45.5571 28.779 46.4454 28.0239C47.3721 27.2363 47.7218 26.0117 47.7218 24.472H45.7218ZM43.2178 26.928H41.2018V28.928H43.2178V26.928ZM40.2018 27.928V34.84H42.2018V27.928H40.2018ZM41.2018 35.84H43.2178V33.84H41.2018V35.84ZM43.2178 35.84C44.7593 35.84 45.422 36.0437 45.7673 36.3734C46.1029 36.6938 46.3938 37.3859 46.3938 39.16H48.3938C48.3938 37.3341 48.1326 35.8662 47.1482 34.9266C46.1735 33.9963 44.7482 33.84 43.2178 33.84V35.84ZM46.3938 39.16C46.3938 40.2096 46.2084 40.8262 45.9589 41.1645C45.7563 41.4392 45.4125 41.664 44.6577 41.664V43.664C45.871 43.664 46.8952 43.2648 47.5686 42.3515C48.1951 41.5018 48.3938 40.3664 48.3938 39.16H46.3938ZM44.6577 41.664C43.903 41.664 43.5592 41.4392 43.3566 41.1645C43.1071 40.8262 42.9217 40.2096 42.9217 39.16H40.9217C40.9217 40.3664 41.1204 41.5018 41.7469 42.3515C42.4203 43.2648 43.4445 43.664 44.6577 43.664V41.664ZM42.9217 39.16V38.152H40.9217V39.16H42.9217ZM41.9217 37.152H32.7057V39.152H41.9217V37.152ZM31.7057 38.152V39.496H33.7057V38.152H31.7057Z" fill="#DEC27F"/>
</svg>
