<svg width="89" height="63" viewBox="0 0 89 63" fill="none" xmlns="http://www.w3.org/2000/svg">
<path d="M38.2693 11.8519L37.5218 12.5163L37.526 12.5209L38.2693 11.8519ZM11.9173 11.8519L12.6606 12.5209L12.6647 12.5163L11.9173 11.8519ZM11.9173 54.0439L12.6647 53.3796L12.6605 53.375L11.9173 54.0439ZM38.2693 54.0439L37.5259 53.375L37.5218 53.3796L38.2693 54.0439ZM28.4773 46.5559L29.3876 46.9698L29.3921 46.9599L29.3964 46.9499L28.4773 46.5559ZM21.7093 46.5559L20.7901 46.9499L20.7944 46.9599L20.7989 46.9697L21.7093 46.5559ZM21.7093 19.3399L20.7989 18.9261L20.7944 18.936L20.7901 18.946L21.7093 19.3399ZM28.4773 19.3399L29.3964 18.946L29.3921 18.936L29.3876 18.9261L28.4773 19.3399ZM44.4533 32.9479C44.4533 23.0708 43.1742 15.807 39.0125 11.183L37.526 12.5209C41.1403 16.5369 42.4533 23.0971 42.4533 32.9479H44.4533ZM39.0167 11.1876C35.8966 7.67755 31.3413 5.88395 25.0933 5.88395V7.88395C30.9412 7.88395 34.8819 9.54635 37.5218 12.5163L39.0167 11.1876ZM25.0933 5.88395C18.8452 5.88395 14.2899 7.67755 11.1698 11.1876L12.6647 12.5163C15.3046 9.54635 19.2453 7.88395 25.0933 7.88395V5.88395ZM11.174 11.183C7.01231 15.807 5.73325 23.0708 5.73325 32.9479H7.73325C7.73325 23.0971 9.04619 16.5369 12.6605 12.5209L11.174 11.183ZM5.73325 32.9479C5.73325 42.8251 7.01231 50.0889 11.174 54.7129L12.6605 53.375C9.04619 49.359 7.73325 42.7988 7.73325 32.9479H5.73325ZM11.1698 54.7083C14.2899 58.2183 18.8452 60.0119 25.0933 60.0119V58.0119C19.2453 58.0119 15.3046 56.3496 12.6647 53.3796L11.1698 54.7083ZM25.0933 60.0119C31.3413 60.0119 35.8966 58.2183 39.0167 54.7083L37.5218 53.3796C34.8819 56.3496 30.9412 58.0119 25.0933 58.0119V60.0119ZM39.0125 54.7129C43.1742 50.0889 44.4533 42.8251 44.4533 32.9479H42.4533C42.4533 42.7988 41.1403 49.359 37.526 53.375L39.0125 54.7129ZM28.6293 32.9479C28.6293 36.4674 28.5572 39.3344 28.3804 41.5628C28.201 43.8228 27.9203 45.317 27.5581 46.162L29.3964 46.9499C29.8982 45.7789 30.1935 43.9971 30.3741 41.7211C30.5573 39.4135 30.6293 36.4845 30.6293 32.9479H28.6293ZM27.5669 46.1421C27.2834 46.7658 26.9334 47.1152 26.565 47.3224C26.1835 47.537 25.7015 47.6439 25.0933 47.6439V49.6439C25.925 49.6439 26.775 49.4989 27.5455 49.0655C28.3291 48.6247 28.9511 47.9301 29.3876 46.9698L27.5669 46.1421ZM25.0933 47.6439C24.485 47.6439 24.003 47.537 23.6215 47.3224C23.2531 47.1152 22.9031 46.7658 22.6196 46.1421L20.7989 46.9697C21.2354 47.9301 21.8574 48.6247 22.641 49.0655C23.4115 49.4989 24.2615 49.6439 25.0933 49.6439V47.6439ZM22.6284 46.162C22.2662 45.317 21.9855 43.8228 21.8061 41.5628C21.6293 39.3344 21.5573 36.4674 21.5573 32.9479H19.5573C19.5573 36.4845 19.6292 39.4135 19.8124 41.7211C19.993 43.9971 20.2883 45.7789 20.7901 46.9499L22.6284 46.162ZM21.5573 32.9479C21.5573 29.4285 21.6293 26.5615 21.8061 24.3331C21.9855 22.0731 22.2662 20.5789 22.6284 19.7339L20.7901 18.946C20.2883 20.117 19.993 21.8988 19.8124 24.1748C19.6292 26.4824 19.5573 29.4114 19.5573 32.9479H21.5573ZM22.6196 19.7537C22.9031 19.1301 23.2531 18.7807 23.6215 18.5735C24.003 18.3589 24.485 18.2519 25.0933 18.2519V16.2519C24.2615 16.2519 23.4115 16.397 22.641 16.8304C21.8574 17.2712 21.2354 17.9658 20.7989 18.9261L22.6196 19.7537ZM25.0933 18.2519C25.7015 18.2519 26.1835 18.3589 26.565 18.5735C26.9334 18.7807 27.2834 19.1301 27.5669 19.7537L29.3876 18.9261C28.9511 17.9658 28.3291 17.2712 27.5455 16.8304C26.775 16.397 25.925 16.2519 25.0933 16.2519V18.2519ZM27.5581 19.7339C27.9203 20.5789 28.201 22.0731 28.3804 24.3331C28.5572 26.5615 28.6293 29.4285 28.6293 32.9479H30.6293C30.6293 29.4114 30.5573 26.4824 30.3741 24.1748C30.1935 21.8988 29.8982 20.117 29.3964 18.946L27.5581 19.7339ZM50.4946 43.3879V42.3879H49.4478L49.4957 43.4337L50.4946 43.3879ZM65.9026 27.7639L64.9036 27.7192L64.7929 30.1928L66.5904 28.4899L65.9026 27.7639ZM66.3346 18.1159V17.1159H65.3784L65.3356 18.0712L66.3346 18.1159ZM83.1106 18.1159V19.1159H84.1106V18.1159H83.1106ZM83.1106 7.74795H84.1106V6.74795H83.1106V7.74795ZM53.5906 7.74795V6.74795H52.6336L52.5916 7.70409L53.5906 7.74795ZM52.2946 37.2679L51.2956 37.2241L51.2498 38.2679H52.2946V37.2679ZM64.8226 37.2679V38.2679H65.5935L65.7897 37.5224L64.8226 37.2679ZM64.3906 43.3879L65.3886 43.3242L65.3288 42.3879H64.3906V43.3879ZM49.4957 43.4337C49.7205 48.3425 51.3404 52.5197 54.4815 55.4663C57.6213 58.4117 62.158 60.0119 67.9906 60.0119V58.0119C62.5192 58.0119 58.524 56.5162 55.8498 54.0076C53.1768 51.5002 51.7007 47.8654 51.4936 43.3422L49.4957 43.4337ZM67.9906 60.0119C74.0447 60.0119 78.7036 58.3 81.8478 55.146C84.9904 51.9937 86.4866 47.5347 86.4866 42.3079H84.4866C84.4866 47.1612 83.1029 51.0542 80.4314 53.7339C77.7617 56.4119 73.6726 58.0119 67.9906 58.0119V60.0119ZM86.4866 42.3079C86.4866 36.2514 85.2237 31.7773 82.8275 28.8017C80.401 25.7886 76.934 24.4599 72.8866 24.4599V26.4599C76.4713 26.4599 79.3042 27.6153 81.2698 30.0561C83.2656 32.5346 84.4866 36.4845 84.4866 42.3079H86.4866ZM72.8866 24.4599C69.6012 24.4599 66.8118 25.5251 65.2149 27.038L66.5904 28.4899C67.7294 27.4108 69.9801 26.4599 72.8866 26.4599V24.4599ZM66.9016 27.8087L67.3336 18.1607L65.3356 18.0712L64.9036 27.7192L66.9016 27.8087ZM66.3346 19.1159H83.1106V17.1159H66.3346V19.1159ZM84.1106 18.1159V7.74795H82.1106V18.1159H84.1106ZM83.1106 6.74795H53.5906V8.74795H83.1106V6.74795ZM52.5916 7.70409L51.2956 37.2241L53.2937 37.3118L54.5897 7.79181L52.5916 7.70409ZM52.2946 38.2679H64.8226V36.2679H52.2946V38.2679ZM65.7897 37.5224C66.05 36.5332 66.7766 35.82 67.9906 35.82V33.82C65.7486 33.82 64.3152 35.2667 63.8556 37.0135L65.7897 37.5224ZM67.9906 35.82C68.5259 35.82 68.9056 35.9131 69.187 36.0633C69.4583 36.2081 69.7043 36.4409 69.9207 36.8378C70.3853 37.6895 70.6626 39.1953 70.6626 41.7319H72.6626C72.6626 39.1566 72.4 37.2064 71.6765 35.8801C71.299 35.188 70.7889 34.6513 70.1288 34.2989C69.4786 33.9518 68.7514 33.82 67.9906 33.82V35.82ZM70.6626 41.7319C70.6626 44.2686 70.3853 45.7744 69.9207 46.6261C69.7043 47.023 69.4583 47.2558 69.187 47.4007C68.9056 47.5508 68.5259 47.6439 67.9906 47.6439V49.6439C68.7514 49.6439 69.4786 49.5121 70.1288 49.165C70.7889 48.8126 71.299 48.2759 71.6765 47.5838C72.4 46.2575 72.6626 44.3073 72.6626 41.7319H70.6626ZM67.9906 47.6439C67.4623 47.6439 67.0924 47.5488 66.8239 47.4101C66.5621 47.2748 66.3419 47.0703 66.151 46.7604C65.7403 46.0939 65.4953 44.9962 65.3886 43.3242L63.3927 43.4516C63.5019 45.1637 63.7609 46.694 64.4483 47.8095C64.8063 48.3906 65.2837 48.8656 65.9061 49.187C66.5218 49.5051 67.223 49.6439 67.9906 49.6439V47.6439ZM64.3906 42.3879H50.4946V44.3879H64.3906V42.3879Z" fill="#5A523D"/>
<path d="M50.4946 43.3879V42.3879H49.4478L49.4957 43.4337L50.4946 43.3879ZM65.9026 27.7639L64.9036 27.7192L64.7929 30.1928L66.5904 28.4899L65.9026 27.7639ZM66.3346 18.1159V17.1159H65.3784L65.3356 18.0712L66.3346 18.1159ZM83.1106 18.1159V19.1159H84.1106V18.1159H83.1106ZM83.1106 7.74795H84.1106V6.74795H83.1106V7.74795ZM53.5906 7.74795V6.74795H52.6336L52.5916 7.70409L53.5906 7.74795ZM52.2946 37.2679L51.2956 37.2241L51.2498 38.2679H52.2946V37.2679ZM64.8226 37.2679V38.2679H65.5935L65.7897 37.5224L64.8226 37.2679ZM64.3906 43.3879L65.3886 43.3242L65.3288 42.3879H64.3906V43.3879ZM49.4957 43.4337C49.7205 48.3425 51.3404 52.5197 54.4815 55.4663C57.6213 58.4117 62.158 60.0119 67.9906 60.0119V58.0119C62.5192 58.0119 58.524 56.5162 55.8498 54.0076C53.1768 51.5002 51.7007 47.8654 51.4936 43.3422L49.4957 43.4337ZM67.9906 60.0119C74.0447 60.0119 78.7036 58.3 81.8478 55.146C84.9904 51.9937 86.4866 47.5347 86.4866 42.3079H84.4866C84.4866 47.1612 83.1029 51.0542 80.4314 53.7339C77.7617 56.4119 73.6726 58.0119 67.9906 58.0119V60.0119ZM86.4866 42.3079C86.4866 36.2514 85.2237 31.7773 82.8275 28.8017C80.401 25.7886 76.934 24.4599 72.8866 24.4599V26.4599C76.4713 26.4599 79.3042 27.6153 81.2698 30.0561C83.2656 32.5346 84.4866 36.4845 84.4866 42.3079H86.4866ZM72.8866 24.4599C69.6012 24.4599 66.8118 25.5251 65.2149 27.038L66.5904 28.4899C67.7294 27.4108 69.9801 26.4599 72.8866 26.4599V24.4599ZM66.9016 27.8087L67.3336 18.1607L65.3356 18.0712L64.9036 27.7192L66.9016 27.8087ZM66.3346 19.1159H83.1106V17.1159H66.3346V19.1159ZM84.1106 18.1159V7.74795H82.1106V18.1159H84.1106ZM83.1106 6.74795H53.5906V8.74795H83.1106V6.74795ZM52.5916 7.70409L51.2956 37.2241L53.2937 37.3118L54.5897 7.79181L52.5916 7.70409ZM52.2946 38.2679H64.8226V36.2679H52.2946V38.2679ZM65.7897 37.5224C66.05 36.5332 66.7766 35.82 67.9906 35.82V33.82C65.7486 33.82 64.3152 35.2667 63.8556 37.0135L65.7897 37.5224ZM67.9906 35.82C68.5259 35.82 68.9056 35.9131 69.187 36.0633C69.4583 36.2081 69.7043 36.4409 69.9207 36.8378C70.3853 37.6895 70.6626 39.1953 70.6626 41.7319H72.6626C72.6626 39.1566 72.4 37.2064 71.6765 35.8801C71.299 35.188 70.7889 34.6513 70.1288 34.2989C69.4786 33.9518 68.7514 33.82 67.9906 33.82V35.82ZM70.6626 41.7319C70.6626 44.2686 70.3853 45.7744 69.9207 46.6261C69.7043 47.023 69.4583 47.2558 69.187 47.4007C68.9056 47.5508 68.5259 47.6439 67.9906 47.6439V49.6439C68.7514 49.6439 69.4786 49.5121 70.1288 49.165C70.7889 48.8126 71.299 48.2759 71.6765 47.5838C72.4 46.2575 72.6626 44.3073 72.6626 41.7319H70.6626ZM67.9906 47.6439C67.4623 47.6439 67.0924 47.5488 66.8239 47.4101C66.5621 47.2748 66.3419 47.0703 66.151 46.7604C65.7403 46.0939 65.4953 44.9962 65.3886 43.3242L63.3927 43.4516C63.5019 45.1637 63.7609 46.694 64.4483 47.8095C64.8063 48.3906 65.2837 48.8656 65.9061 49.187C66.5218 49.5051 67.223 49.6439 67.9906 49.6439V47.6439ZM64.3906 42.3879H50.4946V44.3879H64.3906V42.3879Z" fill="#DEC27F"/>
</svg>
