<svg width="52" height="52" viewBox="0 0 52 52" fill="none" xmlns="http://www.w3.org/2000/svg">
<g filter="url(#filter0_di)">
<circle cx="26" cy="22" r="22" transform="rotate(-180 26 22)" fill="#C4C4C4"/>
<circle cx="26" cy="22" r="22" transform="rotate(-180 26 22)" fill="url(#paint0_linear)"/>
</g>
<line x1="33" y1="22" x2="21" y2="22" stroke="black" stroke-width="2"/>
<path d="M26 28L20 22L26 16" stroke="black" stroke-width="2"/>
<defs>
<filter id="filter0_di" x="0" y="0" width="52" height="52" filterUnits="userSpaceOnUse" color-interpolation-filters="sRGB">
<feFlood flood-opacity="0" result="BackgroundImageFix"/>
<feColorMatrix in="SourceAlpha" type="matrix" values="0 0 0 0 0 0 0 0 0 0 0 0 0 0 0 0 0 0 127 0"/>
<feOffset dy="4"/>
<feGaussianBlur stdDeviation="2"/>
<feColorMatrix type="matrix" values="0 0 0 0 0 0 0 0 0 0 0 0 0 0 0 0 0 0 0.25 0"/>
<feBlend mode="normal" in2="BackgroundImageFix" result="effect1_dropShadow"/>
<feBlend mode="normal" in="SourceGraphic" in2="effect1_dropShadow" result="shape"/>
<feColorMatrix in="SourceAlpha" type="matrix" values="0 0 0 0 0 0 0 0 0 0 0 0 0 0 0 0 0 0 127 0" result="hardAlpha"/>
<feOffset dy="-3"/>
<feComposite in2="hardAlpha" operator="arithmetic" k2="-1" k3="1"/>
<feColorMatrix type="matrix" values="0 0 0 0 0.729167 0 0 0 0 0.605228 0 0 0 0 0.306858 0 0 0 1 0"/>
<feBlend mode="normal" in2="shape" result="effect2_innerShadow"/>
</filter>
<linearGradient id="paint0_linear" x1="43.7313" y1="-4.36506e-07" x2="0.311351" y2="5.88538" gradientUnits="userSpaceOnUse">
<stop offset="0.203125" stop-color="#DDC281"/>
<stop offset="1" stop-color="#E7C162"/>
</linearGradient>
</defs>
</svg>
