<svg width="80" height="80" viewBox="0 0 80 80" fill="none" xmlns="http://www.w3.org/2000/svg">
<g filter="url(#filter0_f)">
<rect x="10.5" y="10.5" width="59" height="59" rx="29.5" stroke="#DEC27F"/>
</g>
<g clip-path="url(#clip0)">
<path d="M46.5032 28H43.1387C39.3452 28 36.9065 30.4151 36.9065 34.1575V37.0078H33.5194C33.2258 37.0078 33 37.2472 33 37.5083V41.6205C33 41.9034 33.2484 42.121 33.5194 42.121H36.9065V52.4996C36.9065 52.7824 37.1323 53 37.4258 53H41.8516C42.1452 53 42.371 52.7607 42.371 52.4996V42.121H46.3226C46.6161 42.121 46.8419 41.9034 46.8419 41.6205V37.5083C46.8419 37.3777 46.7968 37.2472 46.6839 37.1384C46.5935 37.0513 46.4581 36.9861 46.3 36.9861H42.3484V34.5709C42.3484 33.4178 42.6419 32.8303 44.2 32.8303H46.4806C46.7742 32.8303 47 32.5909 47 32.3299V28.5004C47.0226 28.2393 46.7968 28 46.5032 28Z" fill="#DEC27F"/>
</g>
<defs>
<filter id="filter0_f" x="0" y="0" width="80" height="80" filterUnits="userSpaceOnUse" color-interpolation-filters="sRGB">
<feFlood flood-opacity="0" result="BackgroundImageFix"/>
<feBlend mode="normal" in="SourceGraphic" in2="BackgroundImageFix" result="shape"/>
<feGaussianBlur stdDeviation="5" result="effect1_foregroundBlur"/>
</filter>
<clipPath id="clip0">
<rect width="14" height="25" fill="white" transform="translate(33 28)"/>
</clipPath>
</defs>
</svg>
