<svg width="80" height="80" viewBox="0 0 80 80" fill="none" xmlns="http://www.w3.org/2000/svg">
<g filter="url(#filter0_f)">
<rect x="10.5" y="10.5" width="59" height="59" rx="29.5" stroke="#DEC27F"/>
</g>
<g clip-path="url(#clip0)">
<path d="M26.623 41.0506L32.6696 42.9971L34.9181 50.8453C35.1448 51.6736 36.1085 51.9221 36.6565 51.3008L39.7742 47.8013L45.8963 52.7297C46.6521 53.3302 47.7103 52.8746 47.8992 51.8807L51.9617 30.6141C52.1696 29.5787 51.2248 28.709 50.3178 29.1024L26.5475 39.2491C25.7728 39.5804 25.8294 40.7814 26.623 41.0506ZM33.9733 42.1895L47.0111 33.3267C47.2946 33.099 47.6158 33.5545 47.3512 33.8237L36.3164 44.5295C36.203 44.633 36.1274 44.778 36.1274 44.9436L35.7117 49.0851C35.6928 49.2301 35.5228 49.2301 35.485 49.1058L33.7277 42.935C33.6521 42.6451 33.7466 42.3552 33.9733 42.1895Z" fill="#DEC27F"/>
</g>
<defs>
<filter id="filter0_f" x="0" y="0" width="80" height="80" filterUnits="userSpaceOnUse" color-interpolation-filters="sRGB">
<feFlood flood-opacity="0" result="BackgroundImageFix"/>
<feBlend mode="normal" in="SourceGraphic" in2="BackgroundImageFix" result="shape"/>
<feGaussianBlur stdDeviation="5" result="effect1_foregroundBlur"/>
</filter>
<clipPath id="clip0">
<rect width="26" height="24" fill="white" transform="translate(26 29)"/>
</clipPath>
</defs>
</svg>
